<?xml version="1.0" standalone="no"?>
<!DOCTYPE svg PUBLIC "-//W3C//DTD SVG 1.1//EN" "http://www.w3.org/Graphics/SVG/1.1/DTD/svg11.dtd" >
<svg xmlns="http://www.w3.org/2000/svg">
<metadata>Generated by IcoMoon</metadata>
<defs>
<font id="factoryplus" horiz-adv-x="1024">
<font-face units-per-em="1024" ascent="960" descent="-64" />
<missing-glyph horiz-adv-x="1024" />
<glyph unicode="&#x20;" horiz-adv-x="512" d="" />
<glyph unicode="&#xe900;" glyph-name="badge" d="M987.462 363.734l-2.728 4.198c-17.42 26.655-35.26 54.359-53.309 81.433 15.531 23.506 31.062 47.433 45.964 70.519l8.605 13.432c15.741 24.556 20.148 51.001 12.173 74.717s-27.494 42.396-54.778 52.47c-17 6.296-34.42 12.803-51.001 19.099-13.642 5.247-27.704 10.494-41.556 15.741-1.049 21.618-2.099 43.235-3.358 64.223-0.63 12.593-1.469 25.185-2.099 37.778-2.519 47.223-35.679 80.384-80.803 80.384-8.185 0-16.58-1.049-24.976-3.358l-7.346-1.889c-30.013-7.975-60.865-16.161-91.297-24.976-13.642 17-27.494 34-40.926 50.581-7.766 9.445-15.321 18.889-23.087 28.334-17.63 21.618-40.926 33.581-65.692 33.581s-48.272-11.963-65.902-33.791l-10.074-12.383c-17.63-21.827-36.099-44.494-53.729-67.161-24.136 6.716-48.272 13.222-68.211 18.469-7.346 1.889-14.482 3.778-20.778 5.457-0.21 0-0.42 0.21-0.84 0.21-11.333 2.728-22.037 3.988-32.111 3.988-47.223 0-78.705-29.593-82.273-77.235-2.728-37.568-4.198-74.297-5.247-103.68-33.371-12.593-65.692-24.976-96.334-37.149-25.395-10.074-43.445-28.334-50.791-51.63-7.556-23.297-3.358-48.902 11.333-71.989 17.84-27.704 36.939-56.877 56.248-86.050-19.939-30.223-39.038-59.816-57.087-88.569-13.642-21.618-17.21-47.223-9.654-69.89 7.556-22.877 25.815-41.346 49.951-50.791l9.025-3.568c28.963-11.124 58.766-22.667 88.569-33.791 0.63-10.074 1.259-20.148 1.889-30.013 1.679-22.877 3.148-44.494 2.938-66.322-0.21-23.297 8.815-45.964 24.766-61.914 15.321-15.531 35.889-23.926 57.927-23.926 9.445 0 18.889 1.469 28.334 4.407 20.568 6.506 42.186 12.173 63.174 17.63 10.074 2.728 20.568 5.457 31.062 8.185 21.618-27.074 43.445-53.729 64.013-78.915 17.84-21.618 41.136-33.581 65.692-33.581 24.766 0 48.062 11.963 65.692 33.791 23.716 29.173 43.865 54.149 63.593 79.334 25.815-7.136 52.050-14.062 77.445-20.778l21.618-5.667c8.185-2.099 16.371-3.148 24.346-3.148v0c44.494 0 78.705 33.371 81.013 79.544 0.63 11.543 1.259 23.087 1.889 34.84 1.259 22.457 2.519 45.544 3.358 68.421 29.593 11.124 59.186 22.667 88.149 34l6.926 2.728c25.815 10.074 44.284 28.544 51.84 52.050 7.556 23.926 3.568 49.531-11.543 72.618zM945.067 308.955c-2.309-7.136-8.815-13.013-18.469-16.79l-6.926-2.728c-30.852-11.963-62.754-24.346-94.236-36.309-18.889-7.136-28.963-20.568-29.593-40.087-0.84-25.185-2.309-50.791-3.778-75.766-0.63-11.753-1.259-23.297-1.889-35.050-0.84-16.161-9.864-25.815-24.346-25.815v0c-3.148 0-6.296 0.42-9.654 1.259l-21.618 5.667c-28.124 7.346-57.087 15.111-85.631 23.087-4.407 1.259-8.605 1.889-12.593 1.889-12.803 0-23.716-5.667-32.741-16.79-21.408-27.074-43.025-53.939-68.63-85.631-6.716-8.395-14.482-12.803-21.618-12.803-7.346 0-15.111 4.617-22.037 13.013-22.247 27.074-45.964 56.038-69.050 85.211-10.914 13.642-23.716 16.58-32.321 16.58-4.198 0-8.395-0.63-13.013-1.889-12.803-3.568-26.025-7.136-38.828-10.494-21.618-5.667-43.865-11.543-65.692-18.469-11.963-3.778-22.037-1.889-29.173 5.247-5.457 5.457-8.395 13.222-8.395 21.618 0.21 23.926-1.469 47.643-2.938 70.729-0.84 12.173-1.679 24.766-2.309 36.939-1.049 24.346-16.161 34.84-28.753 39.457-31.902 11.753-64.223 24.136-95.705 36.309l-9.025 3.568c-8.395 3.148-14.272 8.815-16.58 15.741-2.309 6.716-0.84 14.482 3.778 21.827 19.099 30.223 39.457 61.914 60.655 93.816 10.914 16.371 10.914 33.581 0 49.951-20.568 30.642-41.136 62.124-60.025 91.717-5.457 8.605-7.346 17-5.037 23.926 2.099 6.716 8.395 12.593 17.63 16.161 32.741 13.013 67.581 26.235 103.47 39.877 17.84 6.716 27.704 20.358 28.334 39.667 1.049 30.013 2.519 69.89 5.457 110.187 1.259 17.63 8.395 24.556 25.605 24.556 5.457 0 11.753-0.84 18.679-2.519 6.296-1.679 13.222-3.568 20.568-5.457 22.247-5.877 47.433-12.593 72.828-19.939 5.457-1.469 10.284-2.309 15.111-2.309 14.062 0 26.025 6.296 35.679 18.679 18.469 23.926 37.988 47.852 56.667 71.149l10.074 12.383c6.716 8.185 14.482 12.803 21.827 12.803s15.111-4.407 21.618-12.593c7.766-9.445 15.321-18.889 23.087-28.334 14.901-18.259 30.432-37.358 45.334-56.038 9.235-11.543 20.568-17.42 33.581-17.42 4.407 0 9.025 0.63 13.852 2.099 32.531 9.445 65.902 18.259 98.223 26.865l7.346 1.889c3.568 1.049 7.136 1.469 10.284 1.469 20.778 0 23.926-18.679 24.346-26.655 0.63-12.593 1.259-25.185 2.099-37.988 1.259-23.506 2.728-47.852 3.778-71.779 0.84-19.099 10.914-33.161 28.544-39.667 16.371-6.086 32.951-12.383 49.112-18.469 16.79-6.296 34.21-13.013 51.63-19.309 10.914-3.988 18.259-10.284 20.778-17.42 2.309-7.136 0.21-16.371-6.086-26.025l-8.605-13.432c-16.161-25.185-32.951-51.21-49.741-76.396-13.852-20.778-7.766-38.618 0-49.951 19.519-28.753 38.618-58.556 57.297-87.31l2.728-4.407c5.457-7.766 7.346-16.371 5.037-23.297zM623.532 560.81l-164.965-164.965-58.346 58.346c-11.124 11.124-28.963 11.124-40.087 0s-11.124-28.963 0-40.087l78.285-78.285c0.63-0.63 1.469-1.259 2.099-1.889 5.247-4.198 11.543-6.296 17.84-6.296 7.346 0 14.482 2.728 19.939 8.395l185.113 185.113c11.124 11.124 11.124 28.963 0 40.087s-28.753 10.704-39.877-0.42z" />
<glyph unicode="&#xe901;" glyph-name="business" d="M1000.727 820.364h-977.455c-12.87 0-23.273-10.403-23.273-23.273v-698.182c0-12.87 10.403-23.273 23.273-23.273h977.455c12.847 0 23.273 10.403 23.273 23.273v698.182c0 12.87-10.426 23.273-23.273 23.273zM977.455 178.479l-288.303 288.279-32.908-32.908 311.668-311.668h-911.825l311.668 311.668-32.908 32.908-288.303-288.279v595.34h930.909v-595.34zM930.42 773.818l-418.42-418.42-418.42 418.42h-47.034v-18.781l449.001-449.001c9.1-9.1 23.808-9.1 32.908 0l449.001 449.001v18.781h-47.034z" />
<glyph unicode="&#xe902;" glyph-name="check" d="M512-64c-282.322 0-512 229.678-512 512s229.678 512 512 512c95.639 0 188.924-26.542 269.789-76.769 14.132-8.77 18.463-27.341 9.694-41.475-8.785-14.132-27.356-18.495-41.475-9.694-71.31 44.299-153.615 67.701-238.008 67.701-249.105 0-451.765-202.667-451.765-451.765s202.66-451.763 451.765-451.763c249.099 0 451.765 202.667 451.765 451.765 0 50.070-8.126 99.232-24.156 146.117-5.381 15.734 3.028 32.863 18.762 38.243 15.765 5.349 32.863-3.028 38.243-18.762 18.165-53.176 27.388-108.894 27.388-165.601-0.002-282.32-229.68-511.998-512.002-511.998zM512 274.291c-7.639 0-15.027 2.902-20.619 8.173l-240.941 226.336c-12.125 11.387-12.722 30.447-1.332 42.572 11.389 12.109 30.447 12.737 42.572 1.317l217.766-204.564 395.7 469.742c10.699 12.722 29.709 14.352 42.431 3.624 12.722-10.714 14.352-29.709 3.624-42.431l-416.173-494.057c-5.318-6.32-13.020-10.18-21.271-10.667-0.579-0.029-1.175-0.045-1.756-0.045z" />
<glyph unicode="&#xe903;" glyph-name="cogwheel" d="M971.585 555.492l-71.874 12.193c-7.487 24.172-17.113 47.488-28.878 69.735l42.354 59.253c17.969 25.242 15.188 59.681-6.845 81.5l-63.746 63.746c-11.979 11.979-27.808 18.61-44.707 18.61-13.263 0-25.883-4.064-36.579-11.765l-59.467-42.354c-23.102 12.193-47.274 22.247-72.302 29.734l-11.979 71.019c-5.134 30.589-31.445 52.836-62.462 52.836h-90.057c-31.017 0-57.328-22.247-62.462-52.836l-12.407-72.73c-23.958-7.487-47.274-17.327-69.521-29.306l-58.826 42.354c-10.696 7.701-23.53 11.765-36.793 11.765-16.899 0-32.942-6.631-44.707-18.61l-63.959-63.746c-21.819-21.819-24.814-56.259-6.845-81.5l42.782-60.109c-11.765-22.461-21.177-45.777-28.45-69.949l-71.019-11.979c-30.589-5.134-52.836-31.445-52.836-62.462v-90.057c0-31.017 22.247-57.328 52.836-62.462l72.73-12.407c7.487-23.958 17.327-47.274 29.306-69.521l-42.141-58.612c-17.969-25.242-15.188-59.681 6.845-81.5l63.746-63.746c11.979-11.979 27.808-18.61 44.707-18.61 13.263 0 25.883 4.064 36.579 11.765l60.109 42.782c21.605-11.337 44.28-20.535 67.596-27.808l11.979-71.874c5.134-30.589 31.445-52.836 62.462-52.836h90.271c31.017 0 57.328 22.247 62.462 52.836l12.193 71.874c24.172 7.487 47.488 17.113 69.735 28.878l59.253-42.354c10.696-7.701 23.53-11.765 36.793-11.765v0c16.899 0 32.728 6.631 44.707 18.61l63.746 63.746c21.819 21.819 24.814 56.259 6.845 81.5l-42.354 59.467c11.765 22.461 21.605 45.777 28.878 69.735l71.874 11.979c30.589 5.134 52.836 31.445 52.836 62.462v90.057c0.428 31.017-21.819 57.328-52.408 62.462zM966.665 402.973c0-2.781-1.925-5.134-4.706-5.562l-89.843-14.974c-11.337-1.925-20.322-10.268-23.102-21.177-8.129-31.445-20.535-61.606-37.221-89.629-5.776-9.84-5.348-22.033 1.283-31.445l52.836-74.441c1.497-2.139 1.283-5.348-0.642-7.273l-63.746-63.746c-1.497-1.497-2.995-1.711-4.064-1.711-1.283 0-2.353 0.428-3.209 1.070l-74.227 52.836c-9.198 6.631-21.605 7.059-31.445 1.283-28.022-16.685-58.184-29.092-89.629-37.221-11.123-2.781-19.466-11.979-21.177-23.102l-15.188-89.843c-0.428-2.781-2.781-4.706-5.562-4.706h-90.057c-2.781 0-5.134 1.925-5.562 4.706l-14.974 89.843c-1.925 11.337-10.268 20.322-21.177 23.102-30.589 7.915-60.109 20.108-87.704 35.937-4.492 2.567-9.626 3.85-14.546 3.85-5.776 0-11.765-1.711-16.685-5.348l-74.869-53.264c-1.070-0.642-2.139-1.070-3.209-1.070-0.856 0-2.567 0.214-4.064 1.711l-63.746 63.746c-1.925 1.925-2.139 4.92-0.642 7.273l52.622 73.799c6.631 9.412 7.059 21.819 1.283 31.659-16.685 27.808-29.52 57.97-37.648 89.415-2.995 10.909-11.979 19.252-23.102 21.177l-90.484 15.402c-2.781 0.428-4.706 2.781-4.706 5.562v90.057c0 2.781 1.925 5.134 4.706 5.562l89.201 14.974c11.337 1.925 20.535 10.268 23.316 21.391 7.915 31.445 20.108 61.82 36.579 89.843 5.776 9.84 5.134 22.033-1.497 31.231l-53.264 74.869c-1.497 2.139-1.283 5.348 0.642 7.273l63.746 63.746c1.497 1.497 2.995 1.711 4.064 1.711 1.283 0 2.353-0.428 3.209-1.070l73.799-52.622c9.412-6.631 21.819-7.059 31.659-1.283 27.808 16.685 57.97 29.52 89.415 37.648 10.909 2.995 19.252 11.979 21.177 23.102l15.402 90.484c0.428 2.781 2.781 4.706 5.562 4.706h90.057c2.781 0 5.134-1.925 5.562-4.706l14.974-89.201c1.925-11.337 10.268-20.535 21.391-23.316 32.301-8.129 63.104-20.749 91.768-37.648 9.84-5.776 22.033-5.348 31.445 1.283l73.799 53.050c1.070 0.642 2.139 1.070 3.209 1.070 0.856 0 2.567-0.214 4.064-1.711l63.746-63.746c1.925-1.925 2.139-4.92 0.642-7.273l-52.836-74.227c-6.631-9.198-7.059-21.605-1.283-31.445 16.685-28.022 29.092-58.184 37.221-89.629 2.781-11.123 11.979-19.466 23.102-21.177l89.843-15.188c2.781-0.428 4.706-2.781 4.706-5.562v-90.057h-0.214zM512.104 669.078c-121.929 0-220.97-99.041-220.97-220.97s99.041-220.97 220.97-220.97 220.97 99.041 220.97 220.97-99.041 220.97-220.97 220.97zM512.104 284.894c-90.057 0-163.214 73.158-163.214 163.214s73.158 163.214 163.214 163.214 163.214-73.158 163.214-163.214-73.158-163.214-163.214-163.214z" />
<glyph unicode="&#xe904;" glyph-name="internet" d="M511.968 960c-282.72-0.064-511.904-229.248-511.968-511.968 0.064-282.816 229.248-512 511.968-512.032 282.816 0.064 512 229.216 512.032 512.032-0.032 282.72-229.216 511.904-512.032 511.968zM368.992 872.128c-34.496-39.808-71.52-95.232-99.68-168.16h-124.448c54.304 77.696 132.544 137.216 224.128 168.16zM107.872 640h140.448c-12.608-47.136-20.768-100.544-23.040-160h-159.616c4.128 56.992 18.816 110.912 42.208 160zM65.664 415.968h159.616c2.272-59.456 10.432-112.832 23.040-159.968h-140.384c-23.392 49.088-38.112 102.944-42.272 159.968zM144.96 192h124.384c28.128-72.8 65.088-128.224 99.584-168-91.52 30.912-169.696 90.368-223.968 168zM480 6.752c-30.080 22.528-95.712 79.968-141.856 185.248h141.856v-185.248zM480 256.032h-165.44c-13.696 45.984-22.848 99.328-25.44 159.968h190.88v-159.968zM480 480h-190.72c2.592 60.928 11.968 114.016 25.76 160h164.96v-160zM480 703.968h-142.016c16.896 38.496 36.384 70.656 55.776 97.056 26.24 35.648 52.416 60.832 71.712 76.928 5.568 4.608 10.304 8.256 14.528 11.392v-185.376zM958.24 480h-159.52c-2.272 59.488-10.432 112.864-23.104 160h140.448c23.36-49.088 38.112-103.008 42.176-160zM879.136 703.968h-124.448c-28.192 72.96-65.184 128.384-99.712 168.16 91.648-30.944 169.888-90.464 224.16-168.16zM544 703.936v185.28c30.112-22.56 95.712-80.032 141.888-185.312l-141.888 0.032zM544 640h165.408c13.728-45.984 22.848-99.36 25.44-160h-190.848v160zM544 416h190.688c-2.592-60.864-11.968-113.984-25.76-159.968h-164.928v159.968zM558.496 18.048c-5.568-4.608-10.304-8.192-14.496-11.36v185.28h142.016c-16.864-38.464-36.416-70.592-55.808-96.992-26.208-35.616-52.384-60.864-71.712-76.928zM655.072 24c34.464 39.776 71.424 95.2 99.584 168h124.416c-54.336-77.632-132.48-137.088-224-168zM916.032 256.032h-140.352c12.576 47.104 20.736 100.48 23.040 159.968h159.52c-4.128-56.992-18.816-110.88-42.208-159.968z" />
<glyph unicode="&#xe905;" glyph-name="layers" d="M857.56 475.96c0-10.291-8.343-18.634-18.634-18.634s-18.634 8.343-18.634 18.634c0 10.291 8.343 18.634 18.634 18.634s18.634-8.343 18.634-18.634zM186.732 475.96c0-10.291-8.343-18.634-18.634-18.634s-18.634 8.343-18.634 18.634c0 10.291 8.343 18.634 18.634 18.634s18.634-8.343 18.634-18.634zM242.635 420.058c0-10.291-8.343-18.634-18.634-18.634s-18.634 8.343-18.634 18.634c0 10.291 8.343 18.634 18.634 18.634s18.634-8.343 18.634-18.634zM354.439 420.058c0-10.291-8.343-18.634-18.634-18.634s-18.634 8.343-18.634 18.634c0 10.291 8.343 18.634 18.634 18.634s18.634-8.343 18.634-18.634zM298.537 364.156c0-10.291-8.343-18.634-18.634-18.634s-18.634 8.343-18.634 18.634c0 10.291 8.343 18.634 18.634 18.634s18.634-8.343 18.634-18.634zM410.342 364.156c0-10.291-8.343-18.634-18.634-18.634s-18.634 8.343-18.634 18.634c0 10.291 8.343 18.634 18.634 18.634s18.634-8.343 18.634-18.634zM466.244 308.254c0-10.291-8.343-18.634-18.634-18.634s-18.634 8.343-18.634 18.634c0 10.291 8.343 18.634 18.634 18.634s18.634-8.343 18.634-18.634zM578.049 308.254c0-10.291-8.343-18.634-18.634-18.634s-18.634 8.343-18.634 18.634c0 10.291 8.343 18.634 18.634 18.634s18.634-8.343 18.634-18.634zM633.951 364.156c0-10.291-8.343-18.634-18.634-18.634s-18.634 8.343-18.634 18.634c0 10.291 8.343 18.634 18.634 18.634s18.634-8.343 18.634-18.634zM522.146 252.351c0-10.291-8.343-18.634-18.634-18.634s-18.634 8.343-18.634 18.634c0 10.291 8.343 18.634 18.634 18.634s18.634-8.343 18.634-18.634zM689.853 420.058c0-10.291-8.343-18.634-18.634-18.634s-18.634 8.343-18.634 18.634c0 10.291 8.343 18.634 18.634 18.634s18.634-8.343 18.634-18.634zM801.658 420.058c0-10.291-8.343-18.634-18.634-18.634s-18.634 8.343-18.634 18.634c0 10.291 8.343 18.634 18.634 18.634s18.634-8.343 18.634-18.634zM745.756 364.156c0-10.291-8.343-18.634-18.634-18.634s-18.634 8.343-18.634 18.634c0 10.291 8.343 18.634 18.634 18.634s18.634-8.343 18.634-18.634zM848.951 348.876l175.049 100.009-179.931 102.171 179.931 102.804-511.991 290.748-512.009-290.748 179.931-102.804-179.931-102.171 179.931-102.804-179.931-102.171 512.009-292.518 512.009 292.518-179.931 102.171 1.323 0.764c1.304 0.484 2.385 1.267 3.54 2.031zM512.009 901.768l436.709-248.001-436.69-249.511-436.728 249.511 436.709 248.001zM207.379 523.794c3.019-6.205 9.261-10.566 16.622-10.566 5.031 0 9.541 2.031 12.895 5.273l42.15-24.075c-9.876-0.466-17.777-8.479-17.777-18.466 0-10.286 8.348-18.634 18.634-18.634s18.634 8.348 18.634 18.634c0 3.224-1.025 6.093-2.46 8.739l192.49-109.978c-2.162-3.037-3.69-6.559-3.69-10.566 0-10.286 8.348-18.634 18.634-18.634s18.634 8.348 18.634 18.634c0 0.95-0.391 1.752-0.54 2.665l187.31 107.016c1.099-9.243 8.665-16.491 18.206-16.491 10.286 0 18.634 8.348 18.634 18.634 0 6.056-3.075 11.199-7.565 14.591l41.032 23.442c1.267-0.28 2.46-0.764 3.801-0.764 8.274 0 15.038 5.478 17.479 12.932l5.963 3.41 142.253-80.779-36.951-21.112c-2.926 6.466-9.373 11.013-16.92 11.013-10.286 0-18.634-8.348-18.634-18.634 0-4.025 1.547-7.547 3.708-10.584l-192.546-110.016c1.453 2.646 2.497 5.553 2.497 8.795 0 10.286-8.348 18.634-18.634 18.634s-18.634-8.348-18.634-18.634c0-10.007 7.938-18.019 17.833-18.466l-42.169-24.094c-3.354 3.242-7.882 5.292-12.932 5.292-10.286 0-18.634-8.348-18.634-18.634 0-1.491 0.522-2.814 0.857-4.211l-85.531-48.859-102.804 58.735c-2.422 7.472-9.205 12.969-17.497 12.969-1.36 0-2.572-0.503-3.839-0.783l-41.014 23.423c4.491 3.41 7.584 8.534 7.584 14.609 0 10.286-8.348 18.634-18.634 18.634-9.541 0-17.125-7.286-18.206-16.528l-187.347 107.016c0.13 0.913 0.54 1.733 0.54 2.683 0 10.286-8.348 18.634-18.634 18.634-4.454 0-8.367-1.77-11.572-4.379l-25.324 14.46 132.097 75.021zM948.7 243.817l-436.709-249.511-436.69 249.511 142.234 80.779 294.475-168.229 294.456 168.229 142.234-80.779z" />
<glyph unicode="&#xe906;" glyph-name="leaf" d="M1016.226 475.999c-4.837 2.976-10.865 3.229-15.929 0.673l-261.601-132.018v117.429c0 5.678-2.948 10.948-7.782 13.922-4.839 2.974-10.87 3.22-15.935 0.658l-262.449-132.839v118.259c0 5.684-2.954 10.961-7.802 13.933-4.845 2.97-10.889 3.209-15.955 0.63l-260.684-132.747v85.55l69.798 69.798c17.332-2.704 34.945-4.081 52.481-4.083 90.365 0 175.32 35.186 239.206 99.073 78.543 78.543 113.518 190.773 93.557 300.215-1.22 6.689-6.453 11.924-13.142 13.144-20.064 3.66-40.592 5.514-61.011 5.514-90.367 0-175.318-35.184-239.206-99.073-76.502-76.502-111.647-184.958-94.981-291.674l-46.701-46.697v355.735c0 9.024-7.316 16.34-16.34 16.34h-135.408c-9.024 0-16.34-7.316-16.34-16.34v-832.17c0-9.024 7.316-16.34 16.34-16.34h991.319c9.026 0 16.34 7.316 16.34 16.34v462.852c0 5.673-2.943 10.942-7.774 13.916zM332.878 790.929c57.717 57.714 134.462 89.5 216.099 89.5 14.643 0 29.343-1.055 43.847-3.142 13.726-95.26-18.107-191.688-86.36-259.943-57.717-57.717-134.46-89.502-216.097-89.502-7.665 0-15.343 0.307-23.001 0.88l291.117 291.121c6.381 6.381 6.381 16.728 0 23.11-6.384 6.381-16.728 6.381-23.11 0l-291.106-291.108c-6.606 88.323 25.336 175.81 88.611 239.084zM135.408 815.060v-32.681h-102.727v32.681h102.727zM991.319 15.569h-823.231v236.309c0 9.024-7.316 16.34-16.34 16.34s-16.34-7.316-16.34-16.34v-236.307h-102.727v734.127h102.727v-432.459c0-5.684 2.954-10.961 7.802-13.933 4.845-2.97 10.889-3.209 15.955-0.63l260.682 132.747v-118.185c0-5.678 2.948-10.948 7.785-13.922 4.835-2.972 10.867-3.222 15.935-0.658l262.449 132.839v-117.392c0-5.673 2.943-10.942 7.774-13.916 4.837-2.974 10.859-3.229 15.929-0.673l261.601 132.015v-419.964zM322.93 164.302c-9.024 0-16.34-7.316-16.34-16.34v-83.371c0-9.024 7.316-16.34 16.34-16.34s16.34 7.316 16.34 16.34v67.031h138.501v-67.031c0-9.024 7.316-16.34 16.34-16.34s16.34 7.316 16.34 16.34v67.031h138.501v-67.031c0-9.024 7.314-16.34 16.34-16.34s16.34 7.316 16.34 16.34v67.031h138.499v-67.031c0-9.024 7.314-16.34 16.34-16.34s16.34 7.316 16.34 16.34v83.371c0 9.024-7.314 16.34-16.34 16.34h-513.545z" />
<glyph unicode="&#xe907;" glyph-name="link" d="M395.116 630.389l108.314-108.314-65.505-65.509-108.314 108.322-329.611-329.603 299.285-299.285 329.599 329.603-108.314 108.318 65.505 65.505 108.322-108.322 329.599 329.611-299.281 299.285-329.599-329.611zM299.285 84.483l-150.801 150.801 181.124 181.115 34.074-34.078-63.525-63.525 82.653-82.64 63.521 63.521 34.074-34.078-181.119-181.115zM694.401 479.592l-34.078 34.083 63.525 63.521-82.64 82.649-63.533-63.529-34.078 34.078 181.119 181.124 150.801-150.801-181.115-181.124z" />
<glyph unicode="&#xe908;" glyph-name="motor" d="M247.744-30.967h33.033v-33.033h-33.033v33.033zM611.095 827.872h33.033v-33.033h-33.033v33.033zM512 266.322c-72.853 0-132.128-59.275-132.128-132.128s59.275-132.128 132.128-132.128 132.128 59.275 132.128 132.128-59.275 132.128-132.128 132.128zM512 35.099c-54.651 0-99.095 44.444-99.095 99.095s44.444 99.095 99.095 99.095 99.095-44.444 99.095-99.095c0-54.651-44.444-99.095-99.095-99.095zM611.092 431.484v99.099h71.404l33.033-82.582h110.277v457.38l-10.703 4.030c-5.515 2.067-136.866 50.59-303.102 50.59s-297.588-48.523-303.102-50.59l-10.703-4.030v-457.38h110.277l33.033 82.582h71.4v-99.099c0-47.122 0-76.041-58.435-165.161h-106.726v-264.256h124.349c37.029-43.258 85.239-66.066 139.908-66.066s102.879 22.808 139.904 66.066h124.349v264.256h-106.726c-58.435 89.12-58.435 118.040-58.435 165.161zM512.003 926.967c133.599 0 246.419-33.477 280.773-44.808v-54.287h-115.615v-33.033h115.615v-33.033h-561.546v33.033h346.835v33.033h-346.835v54.287c34.351 11.331 147.174 44.808 280.773 44.808zM319.14 563.615l-33.033-82.582h-54.877v247.74h561.546v-247.74h-54.884l-33.033 82.582h-385.719zM743.22 150.711h-66.059v-33.033h66.059v-82.582h-107.041l-4.97-6.226c-31.628-39.703-71.747-59.837-119.212-59.837s-87.584 20.131-119.212 59.837l-4.97 6.226h-107.041v82.582h66.066v33.033h-66.066v82.579h91.42l4.904 7.35c68.841 103.261 68.841 140.008 68.841 190.845v99.099h132.121v-99.099c0-50.836 0-87.587 68.841-190.845l4.904-7.35h91.416v-82.579zM143.806 79.803c-38.447 38.451-61.338 89.651-61.224 136.935 0.114 46.823 23.568 99.328 61.224 137.001l-23.353 23.353c-44.281-44.295-70.772-104.201-70.904-160.288-0.132-55.872 26.377-115.827 70.904-160.354l23.353 23.353zM33.033 150.711h-33.033c0-118.39 96.321-214.711 214.711-214.711v33.033c-100.171 0-181.678 81.507-181.678 181.678zM903.55 56.45c44.527 44.531 71.033 104.482 70.904 160.354-0.132 56.070-26.623 115.993-70.904 160.288l-23.353-23.353c37.656-37.674 61.11-90.178 61.224-137.001 0.118-47.285-22.773-98.485-61.224-136.935l23.353-23.353zM990.967 150.711c0-100.171-81.507-181.678-181.678-181.678v-33.033c118.39 0 214.711 96.321 214.711 214.711h-33.033zM478.967 497.549h33.033v-33.033h-33.033v33.033zM478.967 431.484h33.033v-33.033h-33.033v33.033z" />
<glyph unicode="&#xe909;" glyph-name="people" d="M882.226 239.84l-161.83 40.372c-0.604 0.911-1.267 1.787-2.059 2.581l-44.945 44.961c52.166 54.991 85.209 136.097 85.209 226.406 0 16.545-1.124 32.868-3.311 48.926 0.046 0.177 0.106 0.345 0.146 0.522 0.851 3.797 20.86 94.018 20.86 180.562 0 64.83-35.181 119.89-89.625 140.27-63.917 23.928-121.051 35.559-174.671 35.559-32.12 0-111.090-5.281-165.669-53.080h-6.179c-29.101 0-57.156-12.211-76.975-33.498-19.757-21.223-29.899-49.968-27.829-78.866 3.68-51.355 12.976-118.127 21.964-182.699 2.716-19.502 5.518-39.646 8.101-58.908 0.294-89.822 33.263-170.453 85.193-225.196l-44.945-44.961c-0.772-0.772-1.422-1.623-2.015-2.508l-161.88-40.447c-62.634-15.659-106.379-71.684-106.379-136.247v-115.617c0-28.659 23.315-51.974 51.974-51.974h849.279c28.659 0 51.974 23.315 51.974 51.974v115.619c0 64.561-43.744 120.587-106.388 136.247zM916.712 186.132l-84.561-84.561c-23.185-23.185-35.953-54.011-35.953-86.797v-45.6h-19.905v36.492c0 18.903-15.378 34.281-34.281 34.281h-36.492v19.905h1.106c9.161 0 16.587 7.427 16.587 16.587s-7.427 16.587-16.587 16.587h-35.387c-9.161 0-16.587-7.427-16.587-16.587s7.427-16.587 16.587-16.587h1.106v-19.905h-36.492c-18.903 0-34.281-15.378-34.281-34.281v-36.492h-21.822l-15.152 104.176c10.479 9.515 17.070 23.24 17.070 38.476v4.392l11.335-7.555c5.695-3.797 12.372-5.777 19.104-5.777 2.685 0 5.379 0.316 8.022 0.955 9.231 2.236 17.18 8.285 21.803 16.599 41.433 74.509 61.265 110.194 70.84 127.485l161.418-40.27c16.039-4.010 30.444-11.498 42.524-21.524zM742.013 6.773c0.61 0 1.106-0.495 1.106-1.106v-36.492h-108.371v36.492c0 0.61 0.495 1.106 1.106 1.106h106.16zM512 162.665l36.492-24.328v-26.509c0-10.366-8.433-18.799-18.799-18.799h-35.387c-10.366 0-18.799 8.433-18.799 18.799v26.509l36.492 24.328zM725.003 570.747h-39.905c-6.94 20.546-26.385 35.387-49.245 35.387h-53.080c-18.757 0-35.225-9.99-44.364-24.928-7.745 4.589-16.771 7.234-26.409 7.234s-18.664-2.645-26.409-7.234c-9.139 14.938-25.607 24.928-44.364 24.928h-53.080c-22.86 0-42.305-14.84-49.245-35.387h-38.527c4.779 22.083 18.461 40.949 32.797 60.69 14.624 20.139 29.661 40.843 34.54 65.441 161.586 0.403 285.324-9.565 336.341-27.042 12.233-31.432 19.246-64.669 20.951-99.089zM654.652 554.16v-17.693c0-10.366-8.433-18.799-18.799-18.799h-53.080c-10.366 0-18.799 8.433-18.799 18.799v17.693c0 10.366 8.433 18.799 18.799 18.799h53.080c10.366 0 18.799-8.433 18.799-18.799zM369.348 554.16c0 10.366 8.433 18.799 18.799 18.799h53.080c10.366 0 18.799-8.433 18.799-18.799v-17.693c0-10.366-8.433-18.799-18.799-18.799h-53.080c-10.366 0-18.799 8.433-18.799 18.799v17.693zM336.173 537.572v-1.106c0-28.659 23.315-51.974 51.974-51.974h53.080c28.659 0 51.974 23.315 51.974 51.974 0 10.366 8.433 18.799 18.799 18.799s18.799-8.433 18.799-18.799c0-28.659 23.315-51.974 51.974-51.974h53.080c28.659 0 51.974 23.315 51.974 51.974v1.106h37.174c-6.883-139.253-99.779-249.918-213.001-249.918s-206.116 110.665-213.001 249.918h37.174zM512 254.479c19.37 0 38.22 2.736 56.313 7.893l-56.313-56.316-56.313 56.313c18.094-5.155 36.944-7.891 56.313-7.891zM494.307 59.853h35.387c1.119 0 2.225 0.049 3.326 0.117l13.208-90.795h-68.453l13.206 90.795c1.101-0.069 2.207-0.117 3.326-0.117zM612.938 136.565c-0.069-0.124-0.212-0.38-0.619-0.48-0.469-0.115-0.805 0.108-0.916 0.181l-37.028 24.684c-0.018 0.011-0.035 0.024-0.053 0.035l-36.287 24.191 115.509 115.509 32.516-32.527c-10.974-19.797-36.74-66.171-73.122-131.594zM287.459 850.817c13.763 14.785 32.476 22.928 52.693 22.928h12.609c4.26 0 8.356 1.639 11.439 4.576 45.967 43.778 118.676 48.504 147.801 48.504 48.889 0 103.742-11.255 163.037-33.451 41.358-15.482 68.082-58.346 68.082-109.201 0-35.606-3.674-72.472-7.876-103.006-1.037 2.683-2.108 5.352-3.214 8.011-1.699 4.083-4.954 7.318-9.050 8.99-71.74 29.274-262.796 32.476-370.325 31.819-9.119-0.058-16.481-7.467-16.481-16.587 0-21.371-13.83-40.416-29.844-62.471-5.81-8.002-11.852-16.329-17.457-25.169-8.497 61.091-17.008 123.356-20.434 171.167-1.435 20.033 5.319 39.173 19.020 53.889zM370.456 300.688l115.509-115.509-36.293-24.196c-0.013-0.009-0.029-0.018-0.042-0.029l-37.032-24.689c-0.108-0.073-0.445-0.299-0.916-0.181-0.407 0.097-0.551 0.356-0.617 0.478-36.382 65.425-62.15 111.8-73.122 131.596l32.514 32.529zM149.809 207.654l161.392 40.323c9.563-17.271 29.393-52.952 70.871-127.538 4.622-8.311 12.571-14.363 21.803-16.596 2.645-0.641 5.337-0.955 8.022-0.955 6.732 0 13.409 1.982 19.104 5.777l11.335 7.557v-4.392c0-15.236 6.591-28.962 17.070-38.476l-15.154-104.178h-216.449v45.6c0 32.788-12.768 63.612-35.953 86.797l-84.561 84.561c12.078 10.023 26.482 17.512 42.521 21.522zM68.562-12.026v115.617c0 21.015 6.084 40.834 16.751 57.598l83.079-83.079c16.917-16.917 26.235-39.41 26.235-63.335v-45.6h-107.266c-10.366 0-18.799 8.433-18.799 18.799zM955.438-12.026c0-10.366-8.433-18.799-18.799-18.799h-107.266v45.6c0 23.926 9.318 46.421 26.235 63.338l83.079 83.079c10.667-16.764 16.751-36.583 16.751-57.598v-115.619z" />
<glyph unicode="&#xe90a;" glyph-name="people-1" d="M800 336h-55.104c60.72 27.776 103.104 88.976 103.104 160v103.44c38.48 13.072 64 31.728 64 56.56v32c0 126.944-99.12 230.896-224 239.184v32.816h-32v-32.816c-124.88-8.288-224-112.24-224-239.184v-32c0-24.832 25.504-43.488 64-56.56v-103.44c0-71.024 42.384-132.224 103.104-160h-55.104c-79.392 0-144-64.608-144-144v-112h-80v64c0 8.832-7.168 16-16 16h-16v222.976c48.944 23.84 80 73.344 80 129.024 0 55.184-36.624 100.176-70.896 123.888-4.896 3.408-11.264 3.776-16.528 1.008-5.264-2.752-8.576-8.208-8.576-14.16v-94.736h-96v94.736c0 5.952-3.312 11.408-8.576 14.176s-11.648 2.384-16.528-1.008c-34.272-23.728-70.896-68.72-70.896-123.904 0-55.248 31.056-104.736 80-128.96v-223.040h-16c-8.832 0-16-7.168-16-16v-192c0-8.832 7.168-16 16-16h288v25.376l107.312 107.312c3.008 2.992 4.688 7.072 4.688 11.312v224h32v-144c0-8.832 7.168-16 16-16h160c8.832 0 16 7.168 16 16v144h32v-224c0-4.24 1.68-8.32 4.688-11.312l107.312-107.312v-25.376h32v256c0 79.392-64.608 144-144 144zM672 608c-97.6 0-161.392 17.008-190.208 32h380.4c-28.8-14.992-92.592-32-190.192-32zM869.824 752h-53.824c-26.464 0-48 21.536-48 48v72.336c47.92-25.056 84.896-68.176 101.824-120.336zM688 720v175.184c16.624-1.264 32.704-4.4 48-9.36v-85.824c0-44.112 35.888-80 80-80h61.28c1.632-10.464 2.72-21.088 2.72-32v-16h-416v16c0 10.912 1.104 21.536 2.72 32h61.28c44.112 0 80 35.888 80 80v85.824c15.296 4.96 31.376 8.096 48 9.36v-175.184h32zM576 872.336v-72.336c0-26.464-21.536-48-48-48h-53.824c16.928 52.16 53.904 95.28 101.824 120.336zM528 496v94.448c42.496-9.744 94.048-14.448 144-14.448s101.504 4.704 144 14.448v-94.448c0-79.392-64.608-144-144-144s-144 64.608-144 144zM182.016 408.224c-42.544 17.232-70.016 57.968-70.016 103.776 0 29.36 14.432 55.728 32 75.296v-75.296c0-8.832 7.168-16 16-16h128c8.832 0 16 7.168 16 16v75.296c17.568-19.568 32-45.936 32-75.296 0-46.208-27.424-86.928-69.888-103.728-6.112-2.416-10.112-8.32-10.112-14.88v-233.392h-64v233.392c0 6.512-3.952 12.384-9.984 14.832zM160 0h32v32h-32v32h32v32h-32v32h128v-160h-128v32zM400-32h-80v80h80v-80zM512 86.624l-80-80v185.376c0 50.64 33.792 93.472 80 107.28v-212.656zM736 176h-128v128h128v-128zM832 86.624v212.656c46.208-13.808 80-56.656 80-107.28v-185.376l-80 80zM784 496h-32c0-44.112-35.888-80-80-80v-32c61.76 0 112 50.24 112 112zM752 112h-160c-8.832 0-16-7.168-16-16v-80c0-44.112 35.888-80 80-80h32c44.112 0 80 35.888 80 80v80c0 8.832-7.168 16-16 16zM736 16c0-26.464-21.536-48-48-48h-32c-26.464 0-48 21.536-48 48v64h128v-64z" />
<glyph unicode="&#xe90b;" glyph-name="power" d="M1024 604.903v132.125h-99.095v99.102h-165.161v-99.095h-495.487v99.095h-165.161v-99.095h-99.095v-132.128h66.066v-528.516h-66.066v-132.128h1024v132.128h-66.066v528.513h66.066zM990.967 43.354v-66.066h-957.934v66.066h957.934zM924.901 76.386h-825.806v528.516h825.806v-528.516zM957.931 637.932l-924.898 0.003v66.062h99.095v99.099h99.095v-99.099h561.549v99.099h99.095v-99.099h99.095v-66.066h-33.033zM313.806 803.097h396.388v-33.033h-396.388v33.033zM403.703 109.881l82.1 82.118h406.065v33.033h-373.032l165.161 165.161h-152.113l57.808 66.066h302.18v33.033h-273.274l28.902 33.033h-178.736l-16.516-33.033h-320.118v-33.033h303.598l-82.582-165.161h118.504l-25.715-68.574v2.511h-313.806v-33.033h302.36l-30.785-82.121zM406.596 324.13l82.582 165.161h85.52l-115.612-132.128h145.176l-116.090-116.077 31.15 83.044h-112.726zM132.128 918.705h99.095v-33.033h-99.095v33.033zM825.806 852.643h33.033v33.029h33.033v33.033h-33.033v33.036h-33.033v-33.036h-33.033v-33.033h33.033zM132.128 571.87h33.033v-33.033h-33.033v33.033zM198.194 571.87h33.033v-33.033h-33.033v33.033zM132.128 142.452h33.033v-33.033h-33.033v33.033zM858.839 571.87h33.033v-33.033h-33.033v33.033zM792.773 571.87h33.033v-33.033h-33.033v33.033z" />
<glyph unicode="&#xe90c;" glyph-name="science2" d="M1024 490.666v136.534c0 10.24-6.826 17.066-17.066 17.066v51.2c0 10.24-6.826 17.066-17.066 17.066h-68.268c-10.24 0-17.066-6.826-17.066-17.066v-51.2c-10.24 0-17.066-6.826-17.066-17.066v-17.066h-34.134v17.066c0 10.24-6.826 17.066-17.066 17.066h-34.134v34.134h17.066c10.24 0 17.066 6.826 17.066 17.066v102.4c0 10.24-6.826 17.066-17.066 17.066h-86.794c-8.19 48.268-50.434 85.334-100.94 85.334h-221.866c-50.506 0-92.75-37.066-100.94-85.334h-103.86c-10.24 0-17.066-6.826-17.066-17.066v-102.4c0-10.24 6.826-17.066 17.066-17.066h17.066v-34.134h-34.132c-10.24 0-17.066-6.826-17.066-17.066v-17.066h-34.134v17.066c0 10.24-6.826 17.066-17.066 17.066v51.2c0 10.24-6.826 17.066-17.066 17.066h-68.268c-10.24 0-17.066-6.826-17.066-17.066v-51.2c-10.242 0-17.068-6.826-17.068-17.066v-136.534c0-10.24 6.826-17.066 17.066-17.066v-341.334c-10.24 0-17.066-6.826-17.066-17.066v-102.4c0-10.24 6.826-17.066 17.066-17.066h409.6c5.12 0 8.534 1.706 11.946 5.12l29.014 29.014h105.814l29.014-29.014c3.414-3.414 6.826-5.12 11.946-5.12h392.534c10.24 0 17.066 6.826 17.066 17.066v102.4c0 10.24-6.826 17.066-17.066 17.066v341.334c10.24 0 17.066 6.826 17.066 17.066zM921.6 524.8v85.332h68.266v-102.4h-68.266v17.068zM938.666 678.4h34.134v-34.134h-34.134v34.134zM887.466 576v-34.134h-34.134v34.134h34.134zM819.2 593.066v-85.332h-34.134v102.4h34.134v-17.068zM768 644.266c-10.24 0-17.066-6.826-17.066-17.066v-136.534c0-10.24 6.826-17.066 17.066-17.066v-102.4h-136.534v102.4c10.24 0 17.066 6.826 17.066 17.066v136.534c0 10.24-6.826 17.066-17.066 17.066v34.134h136.534v-34.134zM614.4 610.134v-102.4h-34.134v102.4h34.134zM631.466 337.066h136.534v-51.2c0-37.546-30.72-68.266-68.266-68.266s-68.266 30.72-68.266 68.266v51.2zM802.134 712.534h-204.8v68.266h204.8v-68.266zM409.6 866.134h221.866c31.66 0 58.464-21.842 66.092-51.2h-117.292c-10.24 0-17.066-6.826-17.066-17.066v-102.4c0-10.24 6.826-17.066 17.066-17.066h17.066v-34.134h-34.132c-10.24 0-17.066-6.826-17.066-17.066v-136.534c0-10.24 6.826-17.066 17.066-17.066h34.134v-187.732c0-56.32 46.080-102.4 102.4-102.4s102.4 46.080 102.4 102.4v187.73h34.134c10.24 0 17.066 6.826 17.066 17.066v17.066h34.134v-17.066c0-10.24 6.826-17.066 17.066-17.066v-341.334h-785.068v341.334c10.24 0 17.066 6.826 17.066 17.066v17.066h34.134v-17.066c0-10.24 6.826-17.066 17.066-17.066h34.134v-187.734c0-56.32 46.080-102.4 102.4-102.4s102.4 46.080 102.4 102.4v187.734h34.134c10.24 0 17.066 6.826 17.066 17.066v136.534c0 10.24-6.826 17.066-17.066 17.066h-34.134v34.134h17.066c10.24 0 17.066 6.826 17.066 17.066v102.4c0 10.24-6.826 17.066-17.066 17.066h-100.224c7.628 29.36 34.434 51.202 66.092 51.202zM34.134 610.134h68.266v-102.4h-68.266v102.4zM256 405.334h136.534v-119.466c0-37.546-30.72-68.266-68.266-68.266-37.548-0.002-68.268 30.718-68.268 68.264v119.468zM409.6 610.134h34.134v-102.4h-34.134v102.4zM221.866 780.8h204.8v-68.266h-204.798v68.266zM256 678.4h136.534v-34.134c-10.24 0-17.066-6.826-17.066-17.066v-136.534c0-10.24 6.826-17.066 17.066-17.066v-34.134h-136.534v34.134c10.24 0 17.066 6.826 17.066 17.066v136.534c0 10.24-6.826 17.066-17.066 17.066v34.134zM204.8 610.134h34.134v-102.4h-34.134v102.4zM170.666 576v-34.134h-34.132v34.134h34.132zM51.2 678.4h34.134v-34.134h-34.134v34.134zM51.2 473.6h34.134v-341.334h-34.134v341.334zM989.866 29.866h-368.64l-29.014 29.014c-3.414 3.414-6.826 5.12-11.946 5.12h-119.466c-5.12 0-8.534-1.706-11.946-5.12l-29.014-29.014h-385.706v68.266h955.732v-68.266zM972.8 132.266h-34.134v341.334h34.134v-341.334z" />
<glyph unicode="&#xe90d;" glyph-name="technology" d="M374.639 781.948c55.268 0 100.238-44.973 100.238-100.252 0-19.066 15.457-34.523 34.523-34.523 19.063 0 34.523 15.453 34.523 34.523 0 93.346-75.938 169.301-169.284 169.301-19.063 0-34.523-15.453-34.523-34.526 0.003-19.060 15.457-34.523 34.523-34.523zM374.636 890.954c115.381-0.007 209.248-93.88 209.248-209.255 0-19.066 15.457-34.523 34.523-34.523s34.526 15.453 34.526 34.523c0 153.448-124.842 278.297-278.294 278.304-19.063 0-34.523-15.453-34.523-34.523 0.003-19.073 15.457-34.526 34.519-34.526zM943.714 138.242l-236.93 236.937c-6.472 6.472-15.253 10.116-24.411 10.116s-17.936-3.644-24.411-10.116l-104.376-104.365c-27.22 18.994-54.793 42.187-80.606 68.008-25.824 25.824-49.021 53.393-68.015 80.617l104.376 104.369c13.481 13.481 13.481 35.34 0 48.824l-236.934 236.944c-6.475 6.472-15.253 10.109-24.411 10.109s-17.939-3.637-24.411-10.109l-118.467-118.477c-45.894-45.89-46.604-127.438-1.993-229.621 40.219-92.112 113.388-193.867 206.021-286.51 92.629-92.629 194.377-165.798 286.489-206.017 50.328-21.976 95.642-32.954 134.165-32.954 39.691 0 72.163 11.657 95.453 34.95l118.463 118.467c13.477 13.484 13.477 35.344-0.003 48.828zM247.998 736.337l188.113-188.119-69.646-69.646-188.113 188.119 69.646 69.646zM623.264 32.232c-84.399 36.854-178.617 104.886-265.292 191.564-86.685 86.688-154.714 180.91-191.571 265.316-20.945 47.973-30.013 89.34-26.789 118.667l177.879-177.883c24.948-46.68 61.719-94.953 106.668-139.892 44.922-44.925 93.184-81.703 139.878-106.665l177.893-177.897c-29.324-3.227-70.687 5.841-118.667 26.789zM800.84 44.182l-188.113 188.116 69.646 69.646 188.109-188.119-69.642-69.642z" />
<glyph unicode="&#xe90e;" glyph-name="technology-1" d="M677.333 760.475c-86.578 57.178-194.063 65.275-294.884 22.226-63.218-26.993-113.249-75.827-140.882-137.513-28.791-64.27-37.010-132.196-23.773-196.439 12.385-60.104 42.582-114.337 87.321-156.841 41.636-39.555 65.519-96.164 65.519-155.31v-60.826c0-16.787 7.524-32.432 20.643-42.92l44.809-35.805c1.869-1.492 2.941-3.719 2.941-6.106 0-30.291 24.645-54.936 54.936-54.936h36.076c30.291 0 54.936 24.645 54.936 54.936 0 2.388 1.068 4.614 2.933 6.106l44.817 35.809c13.116 10.485 20.639 26.129 20.639 42.916v60.842c0 58.714 24.299 115.719 66.673 156.401 59.554 57.178 92.351 134.113 92.351 216.635 0 101.21-50.491 194.982-135.055 250.825zM537.852-9.060c0-4.312-3.507-7.814-7.814-7.814h-36.076c-4.308 0-7.814 3.507-7.814 7.814 0 16.787-7.524 32.432-20.643 42.92l-44.809 35.805c-1.869 1.492-2.941 3.719-2.941 6.106v38.008h188.487v-38.008c0-2.388-1.072-4.614-2.937-6.106l-44.817-35.809c-13.116-10.485-20.635-26.125-20.635-42.916zM607.431 160.897h-190.839c-5.78 63.061-33.83 122.238-79.019 165.174-81.053 77.001-101.363 191.896-53.004 299.852 22.772 50.833 64.105 91.122 116.383 113.442 36.731 15.684 74.417 23.459 111.247 23.459 49.407 0 97.267-13.995 139.166-41.667 71.323-47.098 113.901-126.165 113.901-211.51 0-69.571-27.653-134.435-77.865-182.644-45.704-43.882-74.087-103.381-79.97-166.104zM511.998 844.815c13.010 0 23.561 10.551 23.561 23.561v68.064c0 13.010-10.551 23.561-23.561 23.561s-23.561-10.551-23.561-23.561v-68.064c0-13.013 10.551-23.561 23.561-23.561zM797.128 828.094l-48.127-48.131c-9.201-9.201-9.201-24.119 0-33.319 4.602-4.598 10.63-6.899 16.661-6.899s12.059 2.301 16.661 6.899l48.127 48.131c9.201 9.201 9.201 24.119 0 33.319-9.204 9.201-24.122 9.201-33.323 0zM938.796 533.202h-68.064c-13.010 0-23.561-10.551-23.561-23.561s10.551-23.561 23.561-23.561h68.064c13.010 0 23.561 10.551 23.561 23.561s-10.551 23.561-23.561 23.561zM782.32 272.642c-9.201 9.201-24.122 9.201-33.319 0-9.201-9.201-9.201-24.119 0-33.319l48.127-48.127c4.598-4.598 10.63-6.899 16.661-6.899s12.059 2.301 16.661 6.899c9.201 9.201 9.201 24.119 0 33.319l-48.131 48.127zM241.676 272.642l-48.127-48.127c-9.201-9.201-9.201-24.119 0-33.319 4.598-4.598 10.63-6.899 16.661-6.899s12.059 2.301 16.661 6.899l48.127 48.127c9.201 9.201 9.201 24.119 0 33.319s-24.122 9.201-33.323 0zM153.268 533.202h-68.064c-13.010 0-23.561-10.551-23.561-23.561s10.551-23.561 23.561-23.561h68.064c13.010 0 23.561 10.551 23.561 23.561s-10.547 23.561-23.561 23.561zM241.676 746.644c4.602-4.598 10.63-6.899 16.661-6.899 6.028 0 12.059 2.301 16.661 6.899 9.201 9.201 9.201 24.119 0 33.319l-48.131 48.131c-9.201 9.201-24.119 9.201-33.319 0s-9.201-24.119 0-33.319l48.127-48.131zM509.599 667.809c-21.688-1.327-38.192-19.98-36.869-41.667l15.707-257.006c0.703-11.745 10.080-21.385 22.12-22.12 13.013-0.797 24.205 9.11 25.002 22.12l15.707 257.006c0.082 1.508 0.094 3.259 0 4.799-1.323 21.684-19.98 38.192-41.667 36.869zM539.486 272.073c0-15.181-12.307-27.488-27.488-27.488s-27.488 12.307-27.488 27.488c0 15.181 12.307 27.488 27.488 27.488s27.488-12.307 27.488-27.488z" />
<glyph unicode="&#xe90f;" glyph-name="technology-2" d="M973.247 677.833c-47.186 105.598-132.829 188.954-241.129 235.101-171.908 73.17-354.834 59.035-502.213-38.456-144.054-95.204-229.904-254.848-229.904-427.172 0-129.711 48.434-253.393 136.57-348.182 87.721-94.373 206.415-151.953 334.463-162.138 1.871-0.208 3.742-0.208 5.612-0.208 18.085 0 35.754 6.86 49.057 19.332 14.967 13.927 23.697 33.467 23.697 54.046v157.773c0 2.287-0.208 4.573-0.624 6.652 0.416 2.079 0.624 4.365 0.624 6.652 0 20.579-16.837 37.417-37.417 37.417-94.997 0-172.116 77.12-172.116 172.116v113.497h344.232v-113.497c0-47.81-20.163-93.749-55.086-126.177-15.174-14.135-16.006-37.624-2.079-52.799 14.135-15.174 37.624-16.006 52.799-2.079 50.304 46.563 78.991 112.665 78.991 181.055v150.913c0 20.579-16.837 37.417-37.417 37.417h-81.485v122.643c0 20.579-16.837 37.417-37.417 37.417s-37.417-16.837-37.417-37.417v-122.643h-106.429v122.643c0 20.579-16.837 37.417-37.417 37.417s-37.417-16.837-37.417-37.417v-122.643h-81.485c-20.579 0-37.417-16.837-37.417-37.417v-150.913c0.208-123.683 91.255-226.162 209.741-244.247v-134.908c-224.292 18.916-399.734 209.949-399.734 435.487 0 147.172 73.378 283.534 196.437 364.812 125.969 83.356 283.327 94.997 431.538 32.012 90.839-38.456 162.554-108.508 202.049-196.853 84.395-188.954 44.484-395.576-101.856-526.119-15.382-13.719-16.837-37.417-2.91-52.799 13.719-15.382 37.417-16.837 52.799-2.91 80.446 71.923 135.323 165.049 158.813 269.815 24.944 111.834 11.849 230.32-38.456 342.777z" />
<glyph unicode="&#xe910;" glyph-name="text" d="M1023.023 713.712c2.17-7.956 0.723-15.55-4.339-22.782-5.059-7.232-11.933-11.572-20.612-13.018-123.674-17.358-186.234-75.217-187.681-173.578h111.741c7.954 0 14.826-2.893 20.612-8.679s8.679-12.657 8.679-20.612v-418.753c0-8.679-2.893-15.917-8.679-21.697-5.786-5.789-12.658-8.679-20.612-8.679h-350.41c-7.956 0-15.013 2.895-21.16 8.679s-9.221 13.018-9.221 21.697v362.338c0 143.202 35.077 252.416 105.231 327.628 70.154 75.217 175.751 116.442 316.779 123.674 7.232 0.723 13.742-1.085 19.527-5.424 5.791-4.339 9.407-10.125 10.849-17.358l29.297-133.436zM481.678 713.712c2.17-7.956 0.723-15.55-4.339-22.782-5.786-7.956-12.657-12.295-20.612-13.018-123.674-17.358-186.234-75.217-187.681-173.578h111.741c7.956 0 14.826-2.893 20.612-8.679s8.679-12.657 8.679-20.612v-418.753c0-8.679-2.893-15.917-8.679-21.697-5.786-5.789-12.657-8.679-20.612-8.679h-350.41c-7.956 0-15.007 2.895-21.155 8.679-6.148 5.786-9.221 13.018-9.221 21.697v362.338c0 143.202 35.077 252.416 105.231 327.628 70.154 75.217 175.747 116.442 316.779 123.674 7.232 0.723 13.742-1.085 19.527-5.424s9.402-10.125 10.849-17.358l29.291-133.436z" />
<glyph unicode="&#xe911;" glyph-name="tool2" d="M366.066 146.988c-114.806 55.673-188.986 174.036-188.986 301.542 0 112.762 56.229 217.269 150.411 279.557 11.884 7.86 15.146 23.865 7.286 35.749s-23.862 15.146-35.749 7.286c-5.317-3.52-10.528-7.149-15.636-10.895l-50.952 42.757c-29.426 24.688-73.456 20.838-98.146-8.588l-29.010-34.58c-11.935-14.22-17.614-32.278-15.991-50.849 1.625-18.574 10.353-35.374 24.573-47.3l51.041-42.832c-12.256-24.986-21.821-51.339-28.454-78.604h-66.789c-38.412 0-69.664-31.252-69.664-69.664v-45.145c0-38.412 31.252-69.664 69.664-69.664h67.058c6.659-27.018 16.229-53.248 28.586-78.265l-51.434-43.164c-14.226-11.933-22.954-28.729-24.579-47.306-1.622-18.571 4.056-36.629 15.986-50.84l29.016-34.591c13.761-16.395 33.525-24.845 53.423-24.845 15.805 0 31.699 5.337 44.726 16.264l51.623 43.319c18.64-13.621 38.538-25.605 59.485-35.763 12.821-6.211 28.251-0.863 34.468 11.956s0.863 28.251-11.956 34.465zM69.664 407.352c-9.963 0-18.069 8.106-18.069 18.069v45.145c0 9.963 8.106 18.069 18.069 18.069h57.889c-1.37-13.237-2.067-26.62-2.067-40.106 0-13.816 0.731-27.557 2.178-41.178h-58zM147.026 701.198c-3.66 3.070-5.91 7.427-6.335 12.265-0.421 4.841 1.038 9.525 4.116 13.191l29.013 34.582c3.569 4.254 8.694 6.446 13.853 6.446 4.102 0 8.224-1.384 11.603-4.219l44.070-36.984c-19.672-18.987-37.142-39.874-52.222-62.288l-44.099 37.007zM199.282 132.536c-7.639-6.406-19.064-5.406-25.465 2.219l-29.013 34.594c-3.073 3.66-4.535 8.344-4.11 13.185 0.424 4.838 2.674 9.195 6.34 12.274l44.6 37.429c15.289-22.613 32.84-43.442 52.328-62.208l-44.681-37.492zM954.336 540.233h-66.737c-6.618 27.31-16.172 53.684-28.423 78.67l50.958 42.763c29.423 24.688 33.275 68.718 8.588 98.149l-29.016 34.582c-24.691 29.426-68.721 33.278-98.146 8.588l-50.949-42.754c-6.733 4.933-13.661 9.677-20.761 14.214-12.007 7.67-27.958 4.156-35.629-7.851s-4.156-27.958 7.851-35.629c96.957-61.944 154.843-167.526 154.843-282.435 0-130.097-76.322-249.475-194.441-304.13-12.93-5.982-18.562-21.317-12.58-34.244 5.982-12.93 21.32-18.565 34.244-12.58 23.409 10.832 45.394 23.865 65.757 38.787l51.663-43.351c12.623-10.594 28.274-16.258 44.623-16.258 2.067 0 4.142 0.092 6.226 0.272 18.571 1.625 35.371 10.35 47.3 24.57l29.016 34.58c24.691 29.429 20.841 73.456-8.588 98.149l-51.66 43.353c12.262 24.814 21.902 50.978 28.646 78.079h67.213c38.412 0 69.664 31.252 69.664 69.664v45.145c0.003 38.415-31.249 69.666-69.661 69.666zM876.974 194.808c7.633-6.406 8.633-17.829 2.227-25.465l-29.016-34.58c-3.073-3.66-7.43-5.91-12.271-6.332-4.856-0.418-9.525 1.035-13.188 4.11l-44.787 37.581c19.586 18.921 37.085 39.819 52.239 62.28l44.795-37.595zM832.958 664.251c-15.080 22.398-32.576 43.282-52.268 62.257l44.036 36.95c7.633 6.403 19.053 5.406 25.459-2.224l29.013-34.58c6.406-7.636 5.409-19.061-2.224-25.467l-44.016-36.936zM972.406 425.425c0-9.963-8.106-18.069-18.069-18.069h-58.046c1.468 13.586 2.216 27.333 2.216 41.178 0 13.492-0.694 26.878-2.052 40.106h57.88c9.963 0 18.069-8.106 18.069-18.069v-45.145zM685.666 448.533c0 60.46-30.701 115.642-82.132 147.611-12.099 7.521-15.811 23.427-8.289 35.528 7.521 12.096 23.427 15.814 35.528 8.289 66.68-41.447 106.487-113.008 106.487-191.429 0-53.32-18.972-105.043-53.417-145.647-5.102-6.014-12.368-9.109-19.683-9.109-5.899 0-11.827 2.012-16.676 6.125-10.866 9.215-12.199 25.496-2.984 36.36 26.545 31.295 41.166 71.163 41.166 112.272zM382.407 332.925c9.49-10.628 8.565-26.935-2.064-36.425-4.919-4.391-11.058-6.552-17.172-6.552-7.094 0-14.157 2.909-19.253 8.616-36.867 41.301-57.172 94.561-57.172 149.967 0 83.379 45.735 159.575 119.357 198.855 12.569 6.704 28.196 1.955 34.903-10.617 6.707-12.569 1.955-28.196-10.617-34.903-56.776-30.291-92.047-89.046-92.047-153.335-0.003-42.717 15.647-83.775 44.064-115.605zM537.364 365.438c0.287 1.542 0.436 3.13 0.436 4.755v319.497l93.597 54.039c7.983 4.609 12.899 13.125 12.899 22.34v122.977c0 9.215-4.916 17.734-12.899 22.34l-53.245 30.741c-12.337 7.123-28.119 2.898-35.239-9.442-7.123-12.34-2.895-28.116 9.442-35.239l40.347-23.295v-93.188l-80.699-46.592-80.705 46.589v93.188l40.352 23.295c12.34 7.123 16.567 22.899 9.445 35.239s-22.902 16.567-35.239 9.445l-53.254-30.741c-7.983-4.606-12.899-13.125-12.899-22.34v-122.977c0-9.215 4.916-17.734 12.899-22.34l93.603-54.039v-319.497c0-1.625 0.149-3.213 0.436-4.755-34.909-10.835-60.331-43.431-60.331-81.854v-273.449c0-32.934 26.789-59.726 59.714-59.726h51.938c32.934 0 59.726 26.792 59.726 59.726v273.449c0.003 38.423-25.419 71.019-60.325 81.854zM546.098 10.135c0-4.408-3.723-8.132-8.132-8.132h-51.938c-4.403 0-8.12 3.723-8.12 8.132v273.449c0 18.797 15.295 34.089 34.098 34.089s34.098-15.292 34.098-34.089v-273.449z" />
<glyph unicode="&#xe912;" glyph-name="travel" d="M512 960c-200.941 0-364.418-163.477-364.418-364.418 0-194.672 334.004-633.022 348.223-651.588 3.859-5.038 9.846-7.994 16.194-7.994s12.335 2.956 16.194 7.994c14.22 18.567 348.223 456.916 348.223 651.588 0 200.941-163.477 364.418-364.418 364.418zM512-9.602c-28.909 38.985-92.246 126.321-154.926 225.492-110.361 174.612-168.695 305.909-168.695 379.692 0 178.445 145.175 323.621 323.621 323.621s323.621-145.175 323.621-323.621c0-73.783-58.333-205.077-168.695-379.692-62.68-99.171-126.017-186.507-154.926-225.492zM512 809.364c-117.878 0-213.781-95.901-213.781-213.781s95.901-213.783 213.781-213.783 213.781 95.903 213.781 213.783c0 117.878-95.903 213.781-213.781 213.781zM512 422.596c-95.385 0-172.985 77.602-172.985 172.987s77.6 172.985 172.985 172.985 172.985-77.6 172.985-172.985-77.6-172.987-172.985-172.987zM330.458 776.249c4.877 0 9.769 1.738 13.673 5.263 46.084 41.637 105.703 64.569 167.871 64.569 34.753 0 68.386-6.976 99.962-20.735 10.324-4.5 22.348 0.224 26.848 10.552s-0.224 22.348-10.552 26.848c-36.75 16.013-75.866 24.131-116.261 24.131-72.292 0-141.624-26.669-195.223-75.095-8.359-7.551-9.014-20.451-1.461-28.811 4.027-4.457 9.575-6.723 15.142-6.723zM281.482 739.399c-9.977 5.234-22.308 1.397-27.544-8.578-21.741-41.409-33.233-88.174-33.233-135.239 0-11.266 9.132-20.398 20.398-20.398s20.398 9.132 20.398 20.398c0 40.485 9.875 80.69 28.558 116.273 5.236 9.975 1.397 22.306-8.578 27.544z" />
<glyph unicode="&#xe913;" glyph-name="wall-clock" d="M874.045 810.038c-96.704 96.704-225.293 149.962-362.045 149.962s-265.341-53.258-362.045-149.962c-96.704-96.704-149.955-225.275-149.955-362.038s53.251-265.334 149.955-362.038c96.704-96.704 225.293-149.962 362.045-149.962s265.341 53.258 362.045 149.962c96.704 96.704 149.955 225.275 149.955 362.038s-53.251 265.334-149.955 362.038zM512 22.067c-234.854 0-425.943 191.071-425.943 425.933s191.089 425.933 425.943 425.933 425.943-191.071 425.943-425.933-191.089-425.933-425.943-425.933zM355.333 176.118c-16.504 9.523-37.627 3.884-47.183-12.623-9.521-16.525-3.855-37.65 12.649-47.176 5.432-3.146 11.382-4.644 17.244-4.644 11.924 0 23.521 6.193 29.926 17.265 9.531 16.53 3.884 37.65-12.636 47.178zM337.423 714.86c5.883 0 11.858 1.5 17.316 4.664 16.479 9.574 22.1 30.72 12.521 47.201-9.597 16.502-30.715 22.1-47.201 12.529-16.502-9.574-22.098-30.697-12.521-47.199 6.408-11.031 17.976-17.196 29.885-17.196zM192.87 591.836c5.43-3.116 11.361-4.618 17.219-4.618 11.932 0 23.555 6.19 29.937 17.288 9.526 16.502 3.855 37.624-12.649 47.15-16.525 9.549-37.645 3.881-47.173-12.641-9.528-16.53-3.855-37.629 12.667-47.178zM511.409 761.725c0.026 0 0.026 0 0.044 0 19.077 0.049 34.506 15.526 34.491 34.601-0.054 19.077-15.524 34.506-34.604 34.46-19.080-0.023-34.506-15.503-34.463-34.575 0.023-19.054 15.475-34.486 34.532-34.486zM193.18 303.424c-16.504-9.549-22.126-30.669-12.547-47.178 6.408-11.044 18.004-17.219 29.914-17.219 5.88 0 11.83 1.5 17.288 4.667 16.502 9.546 22.118 30.697 12.544 47.178-9.572 16.502-30.697 22.129-47.199 12.552zM198.275 447.639c-0.026 19.080-15.503 34.506-34.575 34.486-19.075-0.023-34.506-15.501-34.483-34.552 0.026-19.077 15.478-34.506 34.532-34.506h0.018c19.082 0.023 34.534 15.503 34.509 34.573zM512.164 134.275c-19.046-0.026-34.506-15.48-34.506-34.552 0.026-19.077 15.485-34.532 34.557-34.506 19.072 0 34.532 15.48 34.506 34.555 0.003 19.052-15.47 34.504-34.557 34.504zM830.963 303.782c-16.497 9.546-37.614 3.907-47.173-12.598-9.546-16.502-3.904-37.624 12.598-47.176 5.458-3.146 11.407-4.641 17.262-4.641 11.932 0 23.529 6.164 29.911 17.242 9.554 16.502 3.907 37.627-12.598 47.173zM860.186 483.341c-19.072-0.049-34.506-15.552-34.455-34.624 0-0.192 0-0.384 0-0.548 0-0.074 0-0.12 0-0.169 0-19.075 15.45-34.529 34.524-34.529 19.080 0 34.532 15.455 34.532 34.529 0 0.12 0 0.264 0 0.404 0 0.143 0 0.312 0 0.476-0.044 19.075-15.529 34.483-34.601 34.46zM668.342 720.074c5.425-3.144 11.359-4.618 17.213-4.618 11.932 0 23.555 6.19 29.937 17.288 9.528 16.53 3.858 37.65-12.667 47.176-16.53 9.503-37.655 3.835-47.155-12.695-9.521-16.525-3.855-37.65 12.672-47.15zM668.959 176.279c-16.502-9.546-22.141-30.666-12.57-47.173 6.405-11.046 17.997-17.239 29.911-17.239 5.883 0 11.812 1.5 17.262 4.659 16.504 9.549 22.126 30.674 12.58 47.183-9.556 16.504-30.682 22.147-47.183 12.57zM813.32 588.239c5.908 0 11.858 1.526 17.334 4.692 16.484 9.597 22.083 30.72 12.485 47.199-9.574 16.504-30.723 22.077-47.201 12.503-16.484-9.572-22.080-30.717-12.503-47.199 6.408-11.026 17.979-17.196 29.885-17.196zM728.983 423.793l-181.33 12.367-18.099 265.585c-0.625 9.137-8.223 16.23-17.385 16.23-9.16 0-16.748-7.094-17.377-16.23l-17.779-260.767-29.023 1.979c-3.871 0.266-7.677-1.088-10.511-3.738-2.829-2.647-4.439-6.354-4.439-10.235v-38.328c0-3.884 1.61-7.585 4.439-10.232 2.601-2.429 6.024-3.773 9.562-3.773 0.312 0 0.63 0.010 0.95 0.031l24.755 1.69-1.787-26.135c-0.323-4.815 1.359-9.546 4.652-13.069 3.292-3.528 7.903-5.53 12.731-5.53h47.662c0.020 0 0.044 0 0.054 0 9.615 0 17.413 7.798 17.413 17.418 0 0.847-2.23 32.678-2.23 32.678l177.751 12.119c7.35 0.502 13.059 6.607 13.059 13.972-0.015 7.36-5.716 13.466-13.066 13.967z" />
<glyph unicode="&#xe914;" glyph-name="left-quotes-sign" d="M0.218 249.438c0-134.628 109.131-243.759 243.757-243.759 134.628 0 243.759 109.131 243.759 243.759s-109.131 243.757-243.759 243.757c-27.668 0-54.152-4.823-78.946-13.323 54.856 314.613 300.193 517.503 72.766 350.52-252.183-185.165-237.848-573.505-237.566-580.622 0-0.111-0.012-0.21-0.012-0.333zM536.483 249.438c0-134.628 109.131-243.759 243.759-243.759s243.759 109.131 243.759 243.759-109.133 243.757-243.761 243.757c-27.67 0-54.152-4.823-78.946-13.323 54.856 314.613 300.193 517.503 72.766 350.52-252.183-185.165-237.85-573.505-237.566-580.622 0-0.111-0.012-0.21-0.012-0.333z" />
<glyph unicode="&#xe915;" glyph-name="mechanic" d="M973.112 84.648h1.339v99.095c0 2.13-0.198 52.82-17.855 105.605l-53.843 125.621h-87.833l-54.339-126.908c-17.162-51.498-17.359-102.185-17.359-104.315v-33.033h-49.546c-27.317 0-49.549 22.232-49.549 49.549v68.788c78.847 45.783 132.128 130.938 132.128 228.5v2.345c28.406 7.384 49.549 33.015 49.549 63.718 0 29.679-11.182 48.425-17.442 56.618 0.562 3.056 0.926 6.177 0.926 9.448v33.033c0 163.919-133.366 297.288-297.288 297.288s-297.288-133.366-297.288-297.288v-33.033c0-3.271 0.364-6.392 0.926-9.448-6.26-8.192-17.442-26.939-17.442-56.618 0-30.702 21.14-56.337 49.549-63.718v-2.345c0-97.562 53.281-182.718 132.128-228.5v-68.788c0-27.317-22.232-49.549-49.549-49.549h-82.582v23.273c32.471 19.687 49.549 51.398 49.549 92.342 0 40.198-27.119 87.008-78.947 98.7l-20.151 4.544v-86.727h-33.033v86.758l-20.182-4.575c-51.811-11.792-78.913-58.567-78.913-98.7 0-40.944 17.078-72.638 49.549-92.342v-41.541c-68.112-31.382-115.611-100.135-115.611-179.929v-16.516h33.033v16.516c0 85.489 65.306 156.011 148.644 164.318v-180.834h33.033v181.677h49.546v-181.677h33.033v181.677h33.033c6.739 0 13.18 1.041 19.458 2.56 14.352-76.537 81.573-134.687 162.219-134.687s147.867 58.154 162.219 134.687c6.278-1.519 12.719-2.56 19.458-2.56h33.033v-181.677h33.033v181.677h49.549v-181.677h33.033v180.838c83.342-8.324 148.644-78.833 148.644-164.318v-16.516h33.033v16.516c-0.003 50.787-19.36 97.014-50.888 132.128zM223.873 198.542l-9.167-4.557v-43.271h-16.516c-17.127 0-33.678-2.411-49.549-6.524v49.795l-9.163 4.557c-27.168 13.492-40.382 35.658-40.382 67.782 0 21.223 11.279 45.203 33.033 58.383v-74.9h99.095v74.934c21.75-13.145 33.033-37.16 33.033-58.418 0-32.124-13.215-54.287-40.382-67.782zM776.257 577.781c4.592 3.007 8.82 6.177 12.569 9.562 2.164-5.997 3.947-13.856 3.947-23.734-0.003-12.171-6.69-22.707-16.516-28.441v42.612zM495.482 926.121v-114.769h33.033v114.769c135.118-8.425 242.835-118.584 247.295-254.728-58.782 31.33-182.156 40.861-263.812 40.861s-205.030-9.531-263.812-40.844c4.46 136.13 112.178 246.31 247.295 254.711zM247.743 535.186c-9.829 5.716-16.516 16.253-16.516 28.423 0 9.892 1.783 17.755 3.947 23.751 3.749-3.402 7.977-6.573 12.569-9.562v-42.612zM247.757 629.627c3.236 16.846 99.31 49.598 264.242 49.598 165.029 0 261.134-32.783 264.256-49.549 0.003-32.467-98.845-66.062-264.256-66.062-165.327 0-264.158 33.56-264.242 66.014zM280.772 497.551v63.835c72.819-27.747 185.673-30.803 231.226-30.803s158.404 3.056 231.226 30.803v-63.835c0-127.504-103.722-231.226-231.226-231.226s-231.226 103.722-231.226 231.226zM511.998 18.582c-67.668 0-123.557 51.165-131.171 116.836 19.374 15.112 32.076 38.416 32.076 64.841v52.487c30.636-12.451 64.051-19.458 99.095-19.458s68.459 7.003 99.095 19.458v-52.487c0-26.426 12.701-49.73 32.076-64.841-7.613-65.667-63.503-116.836-131.171-116.836zM822.172 150.71h-45.914v33.033c0 0.461 0.18 47.402 15.178 92.588l45.255 105.605h5.633v-151.683c-19.177-6.836-33.033-25.007-33.033-46.511 0-12.736 4.97-24.244 12.882-33.033zM858.836 167.226c-9.101 0-16.516 7.398-16.516 16.516s7.415 16.516 16.516 16.516c9.101 0 16.516-7.398 16.516-16.516s-7.415-16.516-16.516-16.516zM941.418 113.172c-17.078 12.32-36.071 22.149-56.6 28.572 14.089 8.737 23.568 24.23 23.568 42.002 0 21.504-13.856 39.671-33.033 46.511v151.683h5.633l44.759-104.318c15.427-46.244 15.674-93.414 15.674-93.892v-70.557zM528.515 481.035h148.644v33.033h-181.677v-165.161h33.033zM297.288 745.29h33.033v-33.033h-33.033v33.033zM363.354 761.807h33.033v-33.033h-33.033v33.033z" />
<glyph unicode="&#xe916;" glyph-name="quality" d="M935.96 48.47l-135.567 327.283c-3.453 8.336-13.011 12.299-21.349 8.843s-12.299-13.014-8.843-21.349l122.555-295.873-111.788 32.391c-7.338 2.129-15.175-1.118-18.859-7.813l-56.144-101.949-131.501 317.475c151.776 29.269 266.778 163.084 266.778 323.275 0.002 181.546-147.696 329.247-329.242 329.247s-329.247-147.7-329.247-329.247c0-73.534 24.236-141.51 65.135-196.375l-159.849-385.909c-2.403-5.804-1.268-12.471 2.922-17.151 4.188-4.68 10.691-6.545 16.724-4.798l131.885 38.217 66.233-120.281c2.885-5.235 8.382-8.458 14.31-8.458 0.301 0 0.604 0.009 0.906 0.024 6.273 0.349 11.789 4.259 14.194 10.064l126.662 305.79c3.453 8.338-0.505 17.896-8.843 21.349s-17.896-0.505-21.349-8.843l-113.653-274.38-56.139 101.949c-3.686 6.695-11.528 9.942-18.861 7.813l-111.786-32.391 140.303 338.724c60.128-64.316 145.669-104.59 240.453-104.59 9.785 0 19.463 0.455 29.031 1.294l147.757-356.716c2.403-5.804 7.922-9.715 14.192-10.061 0.305-0.017 0.606-0.026 0.909-0.026 5.928 0 11.425 3.222 14.308 8.458l66.235 120.281 131.885-38.217c6.037-1.75 12.534 0.118 16.724 4.798s5.323 11.347 2.919 17.151zM215.434 630.753c0 163.526 133.039 296.566 296.566 296.566s296.563-133.039 296.563-296.566-133.037-296.563-296.563-296.563c-163.526 0-296.566 133.037-296.566 296.563zM700.806 692.102c-1.88 5.791-6.83 10.057-12.837 11.066l-109.954 18.452-51.525 98.868c-2.815 5.401-8.399 8.789-14.491 8.789-6.090 0-11.676-3.388-14.491-8.789l-51.527-98.868-109.951-18.452c-6.007-1.007-10.955-5.273-12.837-11.066s-0.388-12.151 3.88-16.497l78.107-79.556-16.428-110.274c-0.898-6.024 1.63-12.046 6.558-15.628 4.924-3.577 11.436-4.12 16.887-1.407l99.801 49.701 99.799-49.701c2.307-1.148 4.8-1.715 7.283-1.715 3.392 0 6.763 1.055 9.606 3.12 4.928 3.582 7.456 9.604 6.558 15.628l-16.425 110.274 78.107 79.558c4.266 4.347 5.761 10.704 3.878 16.497zM589.798 613.136c-3.591-3.658-5.257-8.787-4.501-13.855l13.007-87.31-79.018 39.35c-2.296 1.142-4.789 1.715-7.286 1.715-2.495 0-4.991-0.571-7.283-1.715l-79.018-39.35 13.007 87.31c0.756 5.068-0.911 10.199-4.501 13.855l-61.843 62.991 87.055 14.611c5.055 0.848 9.419 4.018 11.787 8.562l40.797 78.279 40.797-78.282c2.37-4.545 6.732-7.715 11.787-8.562l87.057-14.611-61.843-62.989zM759.529 614.271c-8.948 1.196-17.162-5.105-18.345-14.053-15.157-114.398-113.686-200.669-229.184-200.669-127.486 0-231.204 103.716-231.204 231.204s103.718 231.204 231.204 231.204c115.501 0 214.027-86.269 229.184-200.669 1.183-8.948 9.412-15.253 18.345-14.053 8.944 1.185 15.238 9.399 14.051 18.345-17.299 130.584-129.754 229.058-261.58 229.058-145.506 0-263.885-118.377-263.885-263.885s118.379-263.883 263.885-263.883c131.826 0 244.281 98.474 261.582 229.058 1.185 8.944-5.107 17.157-14.053 18.343z" />
<glyph unicode="&#xe917;" glyph-name="science" d="M480 704c52.944 0 96 43.064 96 96s-43.056 96-96 96c-52.936 0-96-43.064-96-96s43.064-96 96-96zM480 832c17.688 0 32-14.312 32-32s-14.312-32-32-32-32 14.312-32 32 14.32 32 32 32zM608.008 896c17.688 0 32 14.312 32 32s-14.312 32-32 32-32-14.312-32-32 14.312-32 32-32zM256 128v-64h64v64h-64zM384 128v64h-64v-64h64zM384 128v-64h64v64h-64zM448 192v64h-64v-64h64zM512 320h-64v-64h64v64zM512 128v64h-64v-64h64zM512 128v-64h64v64h-64zM576.008 192v64h-64v-64h64zM640.008 320h-64v-64h64v64zM576.008 128h64v64h-64v-64zM640.008 64h64v64h-64v-64zM883.32 79.624l-243.312 408.872v87.504h32c17.688 0 32 14.312 32 32s-14.312 32-32 32h-64c-17.688 0-32-14.312-32-32v-128c0-5.56 1.472-11.064 4.216-15.872l123.656-208.128h-63.872v-64h64v63.792l37.896-63.792h-37.896v-64h64v20.072l29.376-49.448-29.376 29.376v-64h49.944l7.432-12.504c7.408-9.624 8.72-22.688 3.344-33.624-5.408-10.936-16.528-17.872-28.72-17.872h-32v64h-64v-64h-64v64h-64v-64h-64v64h-64v-64h-64v64h-64v-64h-64v64h-49.952l38.024 64h11.92v20.072l26.104 43.928h37.896v63.792l0.128 0.208h63.872v64h-25.84l85.632 144.128c2.744 4.808 4.208 10.312 4.208 15.872v128c0 17.688-14.312 32-32 32h-64c-17.688 0-32-14.312-32-32s14.312-32 32-32h32v-87.504l-243.344-408.872c-17.016-29.688-16.872-66.184 0.312-95.816s48.816-47.808 83.032-47.808h576c34.216 0 65.84 18.184 83.032 47.816s17.32 66.12 0.288 95.808z" />
<glyph unicode="&#xe918;" glyph-name="tool" d="M185.8 823.178c-13.091 0-25.403-5.098-34.662-14.357-19.109-19.111-19.109-50.211 0.002-69.324 9.259-9.257 21.568-14.355 34.662-14.357 13.091 0.002 25.401 5.1 34.662 14.359 19.109 19.111 19.109 50.211-0.002 69.324-9.259 9.257-21.568 14.357-34.662 14.355zM197.355 762.608c-3.087-3.087-7.192-4.786-11.555-4.786-4.366 0-8.47 1.699-11.555 4.784-6.37 6.372-6.37 16.741-0.002 23.109 3.087 3.087 7.192 4.784 11.558 4.784 4.364 0 8.468-1.697 11.553-4.782 6.37-6.372 6.37-16.741 0.002-23.109zM872.823 87.14c19.109 19.111 19.109 50.211-0.002 69.324-9.259 9.257-21.568 14.355-34.66 14.355-13.094 0-25.403-5.098-34.664-14.357-19.109-19.111-19.109-50.211 0.002-69.324 9.259-9.257 21.568-14.357 34.662-14.357 13.091 0 25.401 5.1 34.662 14.359zM826.606 133.353c3.087 3.087 7.192 4.784 11.558 4.784 4.364 0 8.468-1.697 11.553-4.782 6.37-6.372 6.37-16.741 0.002-23.109-3.087-3.087-7.192-4.786-11.555-4.786-4.366 0-8.47 1.699-11.555 4.784-6.37 6.372-6.37 16.741-0.002 23.109zM277.052 459.533c3.192-3.19 7.375-4.784 11.555-4.784s8.364 1.595 11.555 4.784c6.381 6.383 6.381 16.727 0 23.109l-260.712 260.71 177.159 177.159 115.537-115.539-50.067-50.065c-6.381-6.383-6.381-16.727 0-23.109 3.192-3.19 7.375-4.784 11.555-4.784s8.364 1.595 11.555 4.784l50.067 50.065 43.697-43.699-50.065-50.065c-6.381-6.383-6.381-16.727 0-23.109 3.192-3.19 7.375-4.784 11.555-4.784s8.364 1.595 11.555 4.784l50.065 50.065 43.699-43.699-50.065-50.065c-6.381-6.383-6.381-16.727 0-23.109 3.192-3.19 7.375-4.784 11.555-4.784s8.364 1.595 11.555 4.784l61.62 61.62c6.381 6.383 6.381 16.727 0 23.109l-272.265 272.261c-6.383 6.379-16.727 6.379-23.109 0l-200.268-200.268c-6.381-6.383-6.381-16.727 0-23.109l272.263-272.263zM746.911 436.428c-6.383 6.379-16.727 6.379-23.109 0l-61.62-61.62c-6.381-6.383-6.381-16.727 0-23.109 3.192-3.19 7.375-4.784 11.555-4.784s8.364 1.595 11.555 4.784l50.065 50.065 43.699-43.699-50.065-50.065c-6.381-6.383-6.381-16.727 0-23.109 3.192-3.19 7.375-4.784 11.555-4.784s8.364 1.595 11.555 4.784l50.065 50.065 43.699-43.699-50.067-50.065c-6.381-6.383-6.381-16.727 0-23.109 3.192-3.19 7.375-4.784 11.555-4.784s8.364 1.595 11.555 4.784l50.067 50.065 115.539-115.537-177.159-177.159-260.714 260.707c-6.383 6.379-16.727 6.379-23.109 0-6.381-6.383-6.381-16.727 0-23.109l272.263-272.263c3.192-3.19 7.375-4.784 11.555-4.784s8.364 1.595 11.555 4.784l200.268 200.268c6.381 6.383 6.381 16.727 0 23.109l-272.265 272.263zM865.655 624.494c0.035 0.035 134.454 134.456 134.454 134.456 31.852 31.854 31.852 83.685 0 115.539l-61.62 61.62c-31.854 31.849-83.683 31.858-115.541 0l-30.814-30.814c-6.381-6.383-6.381-16.727 0-23.109 6.383-6.379 16.727-6.379 23.109 0l30.812 30.814c19.113 19.111 50.211 19.111 69.324 0l61.62-61.62c19.111-19.111 19.111-50.211 0-69.322l-65.472-65.474-142.497 142.497c-6.383 6.379-16.727 6.379-23.109 0l-57.389-57.389c-0.039-0.039-575.907-575.907-575.907-575.907-0.033-0.033-0.059-0.068-0.092-0.102-0.137-0.139-0.264-0.29-0.394-0.436-1.29-1.41-2.338-3.024-3.068-4.795l-62.901-152.757c-0.022-0.052-0.044-0.105-0.063-0.155l-44.875-108.979c-2.51-6.1-1.109-13.111 3.556-17.775 3.129-3.126 7.307-4.784 11.56-4.784 2.094 0 4.205 0.403 6.218 1.229l108.99 44.88c0.041 0.017 0.083 0.035 0.126 0.050l152.774 62.908c1.78 0.734 3.401 1.789 4.817 3.087 0.137 0.124 0.277 0.242 0.41 0.37 0.035 0.035 0.074 0.063 0.109 0.098l575.865 575.87zM283.864 88.922c-4.396 7.501-9.78 14.49-16.043 20.756-12.81 12.81-28.348 21.732-44.814 26.218l426.993 426.993c6.381 6.383 6.381 16.727 0 23.109-6.383 6.379-16.727 6.379-23.109 0l-426.993-426.991c-4.488 16.468-13.409 32.004-26.22 44.814-6.266 6.264-13.255 11.647-20.758 16.043l547.147 547.145 53.917-53.917-65.472-65.472c-6.381-6.383-6.381-16.727 0-23.109 3.192-3.19 7.375-4.784 11.555-4.784s8.364 1.595 11.555 4.784l65.472 65.472 53.919-53.917-547.149-547.145zM129.315 16.531l-48.784 48.782 52.736 128.071c6.292-3.259 12.148-7.514 17.303-12.671 15.442-15.44 22.597-36.407 19.137-56.082-0.924-5.248 0.771-10.616 4.538-14.385 3.767-3.767 9.137-5.462 14.385-4.538 19.677 3.46 40.642-3.697 56.082-19.137 5.157-5.155 9.412-11.011 12.671-17.303l-128.068-52.736zM757.476 824.42l130.944-130.944-34.302-34.3-130.944 130.944 34.302 34.3zM67.049 32.576l29.525-29.527-50.193-20.666 20.669 50.193z" />
<glyph unicode="&#xe919;" glyph-name="wrench" d="M726.76 376.64l95.294 95.294c54.916-16.89 115.136-2.25 156.222 38.834 43.878 43.876 57.596 109.562 34.956 167.348-2.182 5.558-7.016 9.646-12.858 10.866-5.85 1.22-11.908-0.586-16.134-4.808l-85.274-85.274-53.228 53.23 85.27 85.272c4.226 4.224 6.032 10.29 4.808 16.134-1.218 5.846-5.306 10.682-10.866 12.858-57.778 22.644-123.466 8.924-167.344-34.95-41.086-41.086-55.73-101.292-38.84-156.224l-95.292-95.294-180.294 180.294 12.514 12.514c3.384 3.386 5.254 7.994 5.186 12.778-0.012 0.718-0.796 72.162 22.94 116.532 24.616 46.024 97.43 119.106 98.16 119.838 5.012 5.010 6.55 12.528 3.91 19.104s-8.944 10.944-16.030 11.102c-2.256 0.052-56.208 0.92-109.562-25.756-52.026-26.012-138.594-112.282-142.254-115.942l-162.686-162.686c-6.914-6.912-6.914-18.116 0-25.028l12.512-12.516-62.574-62.572-12.512 12.512c-6.914 6.908-18.122 6.908-25.026 0l-62.572-62.564c-3.32-3.32-5.186-7.822-5.186-12.516s1.866-9.194 5.186-12.516l112.63-112.63c3.318-3.318 7.82-5.182 12.512-5.182s9.194 1.864 12.512 5.182l62.57 62.572c6.914 6.914 6.914 18.116 0 25.028l-12.512 12.516 62.574 62.572 12.512-12.512c6.904-6.908 18.122-6.908 25.026 0l50.058 50.058 180.292-180.294-130.688-130.684c-54.938 16.892-115.144 2.246-156.222-38.834-43.878-43.876-57.596-109.564-34.956-167.35 2.182-5.558 7.016-9.646 12.858-10.866 5.85-1.22 11.912 0.586 16.134 4.808l85.274 85.272 53.228-53.23-85.27-85.27c-4.222-4.224-6.032-10.29-4.808-16.134 1.218-5.846 5.306-10.682 10.866-12.858 18.498-7.25 37.798-10.772 56.938-10.77 40.654 0.002 80.574 15.892 110.404 45.722 41.086 41.084 55.73 101.29 38.84 156.224l130.686 130.684 254.62-254.62c13.766-13.764 31.848-20.644 49.944-20.644 18.134 0 36.278 6.912 50.096 20.724 27.592 27.602 27.626 72.476 0.074 100.034l-254.618 254.618zM751.642 558.040c4.978 4.976 6.534 12.424 3.966 18.972-17.512 44.682-6.904 95.474 27.022 129.404 27.030 27.034 64.738 39.258 101.59 34.26l-76.028-76.028c-6.914-6.914-6.914-18.116 0-25.030l78.258-78.258c6.904-6.908 18.122-6.908 25.026 0l76.028 76.028c5-36.822-7.228-74.558-34.256-101.586-33.93-33.93-84.726-44.536-129.404-27.026-6.554 2.566-14.004 1.008-18.972-3.962l-103.142-103.142-53.23 53.23 103.142 103.138zM280.496 547.592l-12.512 12.512c-6.904 6.908-18.122 6.908-25.026 0l-87.6-87.6c-6.914-6.912-6.914-18.116 0-25.028l12.512-12.516-37.544-37.544-87.6 87.602 37.544 37.542 12.512-12.512c6.904-6.908 18.122-6.908 25.026 0l87.6 87.6c6.914 6.912 6.914 18.116 0 25.028l-12.512 12.516 150.172 150.17c0.856 0.858 86.114 85.844 133.058 109.314 16.146 8.074 32.544 13.192 46.98 16.434-24.174-26.722-55.016-63.422-70.502-92.37-23.25-43.472-26.62-104.692-27.070-126.106l-145.038-145.042zM463.084 163.026c-4.978-4.976-6.534-12.422-3.966-18.972 17.512-44.684 6.904-95.476-27.022-129.404-27.026-27.026-64.756-39.26-101.59-34.262l76.028 76.026c3.318 3.32 5.184 7.82 5.184 12.516 0 4.694-1.866 9.194-5.184 12.516l-78.258 78.258c-6.914 6.908-18.122 6.908-25.026 0l-76.028-76.028c-5 36.824 7.228 74.562 34.256 101.59 33.928 33.93 84.73 44.53 129.408 27.026 6.546-2.576 14-1.008 18.968 3.962l138.536 138.532 53.23-53.23-138.536-138.53zM956.274 47.016c-13.804-13.798-36.22-13.838-49.982-0.078l-538.192 538.194 50.056 50.056 538.196-538.194c13.754-13.756 13.718-36.178-0.078-49.978z" />
<glyph unicode="&#xe91a;" glyph-name="cogs-on-wheels-interface-symbol-for-settings-edition-button" d="M764.186 437.348h-34.693c-5.997 19.358-13.73 37.902-23.172 55.471l24.672 24.672c28.669 28.669 28.669 75.198 0 103.92l-26.434 26.355c-13.73 13.809-32.431 21.515-51.947 21.515v0c-19.516 0-38.165-7.707-52.026-21.515l-24.672-24.672c-17.57 9.39-36.113 17.202-55.471 23.172v34.719c0 40.584-32.878 73.462-73.462 73.462h-37.349c-40.584 0-73.462-32.878-73.462-73.462v-34.719c-19.358-5.971-37.902-13.756-55.471-23.172l-24.672 24.672c-28.722 28.722-75.251 28.722-103.92 0l-26.407-26.355c-28.669-28.669-28.669-75.198 0-103.868l24.672-24.672c-9.311-17.623-17.123-36.166-23.12-55.524h-34.64c-40.584 0-73.462-32.904-73.462-73.436v-37.349c0-40.532 32.878-73.462 73.462-73.462h34.693c5.997-19.332 13.756-37.875 23.12-55.445l-24.698-24.698c-28.669-28.722-28.669-75.172 0-103.92l26.407-26.407c13.756-13.73 32.457-21.489 51.947-21.489v0c19.464 0 38.165 7.759 51.973 21.489l24.672 24.672c17.57-9.337 36.113-17.149 55.471-23.12v-34.719c0-40.584 32.878-73.462 73.462-73.462h37.349c40.584 0 73.462 32.878 73.462 73.462v34.719c19.358 5.971 37.902 13.73 55.471 23.12l24.698-24.672c13.703-13.73 32.404-21.489 51.947-21.489 19.464 0 38.165 7.759 51.947 21.489l26.407 26.407c28.669 28.696 28.669 75.198-0.053 103.868l-24.672 24.672c9.39 17.623 17.202 36.166 23.172 55.498h34.719c40.584 0 73.462 32.93 73.462 73.462v37.349c0.079 40.558-32.799 73.462-73.383 73.462zM428.359 177.323c-92.584 0-167.887 75.303-167.887 167.887 0 92.61 75.303 167.914 167.887 167.914 92.61 0 167.94-75.33 167.94-167.914s-75.303-167.887-167.94-167.887zM976.445 837.747h-13.362c-2.315 7.391-5.339 14.598-8.943 21.357l9.495 9.495c11.047 11.1 11.047 28.985 0 40.058l-10.179 10.179c-5.339 5.339-12.599 8.285-20.095 8.285v0c-7.496 0-14.756-2.946-20.042-8.285l-9.548-9.443c-6.733 3.603-13.809 6.576-21.357 8.89v13.414c0.026 15.676-12.651 28.301-28.328 28.301h-14.387c-15.676 0-28.301-12.625-28.301-28.301v-13.414c-7.444-2.315-14.65-5.287-21.384-8.89l-9.469 9.443c-11.1 11.1-29.038 11.1-40.085 0l-10.153-10.1c-11.1-11.1-11.1-29.038 0-40.111l9.495-9.495c-3.682-6.786-6.707-13.967-8.969-21.357h-13.414c-15.702 0-28.301-12.73-28.301-28.354v-14.387c0-15.676 12.599-28.354 28.301-28.354h13.414c2.262-7.444 5.287-14.65 8.969-21.41l-9.548-9.495c-11.047-11.047-11.047-28.985 0-40.032l10.205-10.205c5.339-5.313 12.572-8.285 20.121-8.285v0c7.47 0 14.703 2.972 20.042 8.285l9.469 9.495c6.812-3.656 13.914-6.628 21.41-8.943v-13.362c0-15.676 12.599-28.354 28.275-28.354h14.387c15.702 0 28.354 12.678 28.354 28.354v13.309c7.444 2.315 14.677 5.287 21.357 8.943l9.548-9.495c5.339-5.313 12.546-8.285 20.042-8.285s14.703 2.972 20.042 8.285l10.179 10.205c11.047 11.047 11.047 29.038 0 40.032l-9.443 9.495c3.656 6.786 6.628 13.967 8.943 21.41h13.414c15.676 0 28.301 12.678 28.301 28.354v14.414c-0.105 15.597-12.783 28.354-28.459 28.354zM846.933 737.404c-35.692 0-64.73 29.038-64.73 64.782 0 35.692 29.038 64.73 64.73 64.73s64.782-29.038 64.782-64.73c0-35.745-29.064-64.782-64.782-64.782z" />
<glyph unicode="&#xe91b;" glyph-name="folder" d="M303.020 186.776c-34.57 0-62.694-28.124-62.694-62.694s28.124-62.694 62.694-62.694c34.57 0 62.694 28.124 62.694 62.694s-28.124 62.694-62.694 62.694zM720.98 186.776c-34.57 0-62.694-28.124-62.694-62.694s28.124-62.694 62.694-62.694c34.57 0 62.694 28.124 62.694 62.694s-28.126 62.694-62.694 62.694zM62.694 960v-1024h898.612v1024h-898.612zM480.654-1.306h-355.266v898.612h355.266v-898.612zM898.612-1.306h-355.266v898.612h355.266v-898.612zM188.082 834.612v-522.448h229.878v522.448h-229.878zM355.266 374.858h-104.49v250.774h104.49v-250.774zM355.266 688.326h-104.49v83.592h104.49v-83.592zM606.040 834.612v-522.448h229.878v522.448h-229.878zM773.224 374.858h-104.49v250.774h104.49v-250.774zM773.224 688.326h-104.49v83.592h104.49v-83.592z" />
<glyph unicode="&#xe91c;" glyph-name="interface" d="M267.526 462.373h414.63v353.129h-414.63v-353.129zM305.221 777.807h339.24v-277.723h-339.24v277.723zM948.088 93.047v632.59l-102.46 208.126-33.829-16.638 98.598-200.247v-586.153h-47.12v512.024h-71.19v317.249h-634.512v-986.308h-81.664v-37.692h797.839v37.692h-81.664v631.367h33.498v-512.011h122.504zM195.267-26.308v948.616h559.128v-948.613h-559.128z" />
<glyph unicode="&#xe91d;" glyph-name="mill" d="M889.576 407.467l-232.789 138.919c18.439 76.688-24.725 152.748-100.365 176.006v194.026c0 23.887-19.696 43.582-43.582 43.582s-43.582-19.696-43.582-43.582v-193.397c-46.306-14.039-84.441-50.706-98.899-101.622-6.915-24.306-7.334-48.821-2.305-71.869l-232.16-140.595c-21.791-12.991-28.287-39.182-15.296-58.878 12.991-21.791 39.182-28.287 58.878-15.296l231.741 138.29c8.172-7.543 16.972-14.458 26.82-20.115l-208.483-456.987c-8.8-21.791 0-45.678 21.791-56.573 21.791-8.8 47.983 0 56.573 21.791l27.239 59.926h355.364l27.029-58.878c10.896-21.791 34.782-32.687 56.573-21.791s32.687 34.782 21.791 56.573l-208.274 456.358c9.219 5.448 17.81 11.734 25.563 18.858l232.579-138.709c19.696-10.896 45.678-4.4 58.878 15.296 11.105 19.486 4.61 45.468-15.086 58.669zM512.42 409.353l69.145-151.072h-138.081l68.936 151.072zM453.961 597.512c9.010 31.43 41.697 51.545 75.431 42.116 33.525-9.429 51.545-41.697 42.116-75.431-9.010-31.43-41.697-51.545-75.431-42.116-31.43 9.010-51.545 41.906-42.116 75.431zM374.968 108.048l28.915 63.278h215.607c0.629 0 1.467 0 2.095 0l28.915-63.278h-275.533z" />
<glyph unicode="&#xe91e;" glyph-name="nature" d="M800.273 416.040c0 293.598-255.635 525.905-266.519 535.645-12.375 11.084-31.108 11.088-43.492 0-10.884-9.745-266.536-242.048-266.536-535.645 0-70.901 30.63-143.267 84.037-198.551 47.817-49.499 107.834-79.89 171.646-87.662v-161.223c0-18.003 14.591-32.599 32.599-32.599s32.599 14.596 32.599 32.599v161.223c63.808 7.772 123.816 38.167 171.629 87.662 53.406 55.284 84.037 127.654 84.037 198.551zM345.574 646.251l133.835-133.848v-136.217l-171.359 171.381c9.78 34.534 22.724 67.594 37.524 98.685zM544.608 376.142v136.23l133.835 133.848c14.804-31.108 27.749-64.181 37.528-98.732l-171.364-171.346zM646.461 706.304c-0.517-0.461-1.052-0.904-1.547-1.404l-100.306-100.319v241.808c29.926-34.199 67.772-82.285 101.853-140.086zM479.409 846.394v-241.778l-100.275 100.284c-0.513 0.509-1.048 0.961-1.582 1.43 34.095 57.796 71.931 105.874 101.858 140.064zM288.925 416.040c0 18.556 1.274 36.876 3.499 54.941l186.989-187.003v-88.361c-110.977 17.843-190.488 124.303-190.488 220.423zM544.608 195.621v88.322l186.972 186.959c2.225-18.038 3.499-36.333 3.499-54.862-0.004-96.12-79.507-202.581-190.471-220.419z" />
</font></defs></svg>